<?xml version="1.0" encoding="UTF-8" standalone="no"?>
<svg
   width="108.52398"
   height="75.722145"
   version="1.0"
   id="svg16"
   sodipodi:docname="Collaboration_logo_V2.svg"
   inkscape:version="1.2.2 (b0a8486541, 2022-12-01)"
   xmlns:inkscape="http://www.inkscape.org/namespaces/inkscape"
   xmlns:sodipodi="http://sodipodi.sourceforge.net/DTD/sodipodi-0.dtd"
   xmlns="http://www.w3.org/2000/svg"
   xmlns:svg="http://www.w3.org/2000/svg"
   xmlns:rdf="http://www.w3.org/1999/02/22-rdf-syntax-ns#"
   xmlns:cc="http://creativecommons.org/ns#"
   xmlns:dc="http://purl.org/dc/elements/1.1/">
  <title
     id="title251">Salam / Collaboration / Logo</title>
  <defs
     id="defs20" />
  <sodipodi:namedview
     id="namedview18"
     pagecolor="#ffffff"
     bordercolor="#666666"
     borderopacity="1.0"
     inkscape:showpageshadow="2"
     inkscape:pageopacity="0.0"
     inkscape:pagecheckerboard="0"
     inkscape:deskcolor="#d1d1d1"
     showgrid="false"
     inkscape:zoom="6.5022862"
     inkscape:cx="84.27805"
     inkscape:cy="58.287192"
     inkscape:window-width="1680"
     inkscape:window-height="1013"
     inkscape:window-x="0"
     inkscape:window-y="0"
     inkscape:window-maximized="1"
     inkscape:current-layer="svg16" />
  <path
     fill="#afdde9"
     stroke="#000000"
     stroke-linecap="round"
     stroke-linejoin="round"
     stroke-width="8.3798"
     d="m 57.610655,19.490811 12.414839,37.436621 c 0,0 3.85064,-0.20293 6.790158,0 1.890867,0.130538 3.389904,-0.711253 4.827142,-2.155878 1.863267,-1.872835 3.584541,-4.092856 3.584541,-4.092856 l 19.071945,0.268807 0.0348,-34.413686 -18.09327,0.223173 C 78.831266,11.348115 68.726492,5.1810299 62.246365,4.1898999"
     id="path2"
     style="stroke-width:1.5;stroke-dasharray:none" />
  <path
     fill="#37abc8"
     stroke="#000000"
     stroke-linecap="round"
     stroke-linejoin="round"
     stroke-width="8.3798"
     d="M 4.2257343,15.832385 23.896991,15.792925 C 28.968121,9.4894612 33.887014,9.3716722 39.662675,7.3898443 53.287408,2.7147233 61.324216,17.0433 64.856564,19.721321 c 0.499448,0.378655 0.758812,0.627325 1.122369,1.074686 5.953612,7.325993 6.908178,8.015017 10.804738,12.473754 2.832642,3.236942 3.832338,3.639795 3.869759,8.837051 0.04189,5.818776 -0.573298,14.360198 -0.573298,14.360198 -0.811499,2.712782 -3.365862,4.265703 -5.57226,4.353162 -2.257358,2.75692 -4.413369,3.326016 -7.076109,2.432433 -1.132321,2.637446 -3.356392,4.132878 -6.485432,3.945107 -1.831015,1.794564 -2.798747,1.848323 -5.623547,1.281577 -17.573983,1.198065 -25.800216,-8.467804 -33.8623,-18.324452 L 4.1898995,50.391545 4.2257384,15.832376 Z"
     id="path4"
     style="stroke-width:1.5;stroke-dasharray:none" />
  <path
     fill="#afdde9"
     stroke="#000000"
     stroke-linecap="round"
     stroke-linejoin="round"
     stroke-width="8.3798"
     d="m 22.547662,54.932177 6.790152,-6.918246 c 2.97419,-0.662298 5.156817,3.067865 3.851137,5.690816 l -5.979392,7.699336 c -3.110654,-0.135382 -5.561534,-3.414109 -4.661897,-6.471906 z m 6.583741,5.234081 c 4.257954,-6.594684 7.944942,-9.734576 12.214735,-15.597348 3.314298,-3.272984 8.416576,0.741642 6.353055,4.59443 -2.063521,3.852787 -12.253857,15.243638 -13.194652,16.22371 -2.424509,1.283848 -6.409848,-1.632366 -5.373138,-5.220792 z"
     id="path6"
     style="stroke-width:1.5;stroke-dasharray:none" />
  <path
     fill="none"
     stroke="#000000"
     stroke-linecap="round"
     stroke-linejoin="round"
     stroke-width="8.3798"
     d="m 60.892448,67.081629 c 0.309227,-4.558484 0.466803,-8.79784 0.201743,-11.429973 -1.428419,-2.840275 -7.026215,-7.170339 -11.451105,-10.775355"
     id="path8"
     style="stroke-width:1.5;stroke-dasharray:none" />
  <path
     fill="#afdde9"
     stroke="#000000"
     stroke-linecap="round"
     stroke-linejoin="round"
     stroke-width="8.3798"
     d="m 37.242776,63.858946 c 5.08219,-6.059222 9.407037,-12.87654 14.391073,-19.080968 3.037297,-3.457314 8.575751,1.201891 6.384772,4.574969 C 54.569675,54.66271 44.971198,67.031648 43.222165,68.88025 40.824139,69.958722 36.84357,67.303399 37.242776,63.858946 Z M 62.087468,4.2211498 c -4.436804,1.0759526 -10.789095,5.9151652 -15.991479,8.9651342 -4.05382,13.79414 -7.13071,18.223898 -3.243057,19.304132 5.830214,2.047705 12.042903,-8.224544 14.391074,-14.840749 l 8.165336,2.216052"
     id="path10"
     style="stroke-width:1.5;stroke-dasharray:none" />
  <path
     fill="none"
     stroke="#000000"
     stroke-linecap="round"
     stroke-linejoin="round"
     stroke-width="8.3798"
     d="M 67.479913,63.287756 67.581258,49.11651 57.345353,38.85073 57.142659,37.623301 m 5.168628,-8.480424 c 0,0 0.112108,0.196554 0.202695,1.115847 0.443499,0.715207 9.932528,10.227366 11.148012,12.385881 0.03473,6.099961 0.134185,12.088334 0.709421,18.188287"
     id="path12"
     style="stroke-width:1.5;stroke-dasharray:none" />
  <path
     fill="#afdde9"
     stroke="#000000"
     stroke-linecap="round"
     stroke-linejoin="round"
     stroke-width="8.3798"
     d="m 45.8192,68.122181 c 0.367016,-0.703976 7.874967,-11.562506 11.319928,-15.376578 2.846515,-3.151511 8.023065,1.769952 4.74401,6.092065 -4.131849,5.446166 -6.989251,9.461219 -10.626373,12.462793 -2.328682,0.727821 -5.727638,-0.622051 -5.437565,-3.17828 z"
     id="path14"
     style="stroke-width:1.5;stroke-dasharray:none" />
  <metadata
     id="metadata249">
    <rdf:RDF>
      <cc:Work
         rdf:about="">
        <cc:license
           rdf:resource="http://creativecommons.org/licenses/by-sa/4.0/" />
        <dc:title>Salam / Collaboration / Logo</dc:title>
        <dc:creator>
          <cc:Agent>
            <dc:title>Berdea</dc:title>
          </cc:Agent>
        </dc:creator>
        <dc:rights>
          <cc:Agent>
            <dc:title>Own work based on: File:Handshake icon.svg, CC BY-SA 3.0</dc:title>
          </cc:Agent>
        </dc:rights>
        <dc:date>2012-03-30</dc:date>
        <dc:publisher>
          <cc:Agent>
            <dc:title>https://commons.wikimedia.org/w/index.php?curid=18895159</dc:title>
          </cc:Agent>
        </dc:publisher>
        <dc:source>https://commons.wikimedia.org/w/index.php?curid=18895159</dc:source>
      </cc:Work>
      <cc:License
         rdf:about="http://creativecommons.org/licenses/by-sa/4.0/">
        <cc:permits
           rdf:resource="http://creativecommons.org/ns#Reproduction" />
        <cc:permits
           rdf:resource="http://creativecommons.org/ns#Distribution" />
        <cc:requires
           rdf:resource="http://creativecommons.org/ns#Notice" />
        <cc:requires
           rdf:resource="http://creativecommons.org/ns#Attribution" />
        <cc:permits
           rdf:resource="http://creativecommons.org/ns#DerivativeWorks" />
        <cc:requires
           rdf:resource="http://creativecommons.org/ns#ShareAlike" />
      </cc:License>
    </rdf:RDF>
  </metadata>
</svg>
