<?xml version="1.0" encoding="UTF-8" standalone="no"?>
<!-- Created with Inkscape (http://www.inkscape.org/) -->

<svg
   width="48"
   height="24"
   id="svg8681"
   sodipodi:version="0.32"
   inkscape:version="1.2.2 (b0a8486541, 2022-12-01)"
   sodipodi:docname="document-print1.svg"
   inkscape:output_extension="org.inkscape.output.svg.inkscape"
   version="1.1"
   inkscape:export-filename="document-print1.png"
   inkscape:export-xdpi="132.883"
   inkscape:export-ydpi="132.883"
   xmlns:inkscape="http://www.inkscape.org/namespaces/inkscape"
   xmlns:sodipodi="http://sodipodi.sourceforge.net/DTD/sodipodi-0.dtd"
   xmlns:xlink="http://www.w3.org/1999/xlink"
   xmlns="http://www.w3.org/2000/svg"
   xmlns:svg="http://www.w3.org/2000/svg"
   xmlns:rdf="http://www.w3.org/1999/02/22-rdf-syntax-ns#"
   xmlns:cc="http://creativecommons.org/ns#"
   xmlns:dc="http://purl.org/dc/elements/1.1/">
  <defs
     id="defs8683">
    <linearGradient
       inkscape:collect="always"
       id="linearGradient7368">
      <stop
         style="stop-color:#ffffff;stop-opacity:1;"
         offset="0"
         id="stop7370" />
      <stop
         style="stop-color:#ffffff;stop-opacity:0;"
         offset="1"
         id="stop7372" />
    </linearGradient>
    <linearGradient
       inkscape:collect="always"
       id="linearGradient7486">
      <stop
         style="stop-color:#2e3436;stop-opacity:1"
         offset="0"
         id="stop7488" />
      <stop
         style="stop-color:#888a85;stop-opacity:1"
         offset="1"
         id="stop7490" />
    </linearGradient>
    <linearGradient
       inkscape:collect="always"
       id="linearGradient7392">
      <stop
         style="stop-color:#888a85;stop-opacity:1"
         offset="0"
         id="stop7394" />
      <stop
         style="stop-color:#888a85;stop-opacity:0"
         offset="1"
         id="stop7396" />
    </linearGradient>
    <linearGradient
       inkscape:collect="always"
       id="linearGradient8124">
      <stop
         style="stop-color:#888a85;stop-opacity:1"
         offset="0"
         id="stop8126" />
      <stop
         style="stop-color:#555753;stop-opacity:1"
         offset="1"
         id="stop8128" />
    </linearGradient>
    <linearGradient
       id="linearGradient2395">
      <stop
         id="stop2397"
         offset="0"
         style="stop-color:#555753;stop-opacity:1;" />
      <stop
         id="stop2399"
         offset="1"
         style="stop-color:#a1a59b;stop-opacity:1;" />
    </linearGradient>
    <linearGradient
       id="linearGradient2385">
      <stop
         style="stop-color:#eeeeec;stop-opacity:1;"
         offset="0"
         id="stop2387" />
      <stop
         id="stop2391"
         offset="0.27380952"
         style="stop-color:#babdb6;stop-opacity:1;" />
      <stop
         style="stop-color:#ffffff;stop-opacity:1;"
         offset="0.55909866"
         id="stop2393" />
      <stop
         style="stop-color:#eeeeec"
         offset="1"
         id="stop2389" />
    </linearGradient>
    <linearGradient
       inkscape:collect="always"
       id="linearGradient2286">
      <stop
         style="stop-color:#babdb6"
         offset="0"
         id="stop2288" />
      <stop
         style="stop-color:#888a85"
         offset="1"
         id="stop2291" />
    </linearGradient>
    <linearGradient
       id="linearGradient2293">
      <stop
         style="stop-color:#eeeeec"
         offset="0"
         id="stop2296" />
      <stop
         id="stop2407"
         offset="0.10714286"
         style="stop-color:#ffffff;stop-opacity:1;" />
      <stop
         style="stop-color:#d3d7cf"
         offset="1"
         id="stop2298" />
    </linearGradient>
    <linearGradient
       id="linearGradient2313"
       inkscape:collect="always">
      <stop
         id="stop2317"
         offset="0"
         style="stop-color:#000000;stop-opacity:1;" />
      <stop
         id="stop2319"
         offset="1"
         style="stop-color:#000000;stop-opacity:0;" />
    </linearGradient>
    <linearGradient
       inkscape:collect="always"
       id="linearGradient2463">
      <stop
         style="stop-color:#ffffff;stop-opacity:1;"
         offset="0"
         id="stop2465" />
      <stop
         style="stop-color:#ffffff;stop-opacity:0;"
         offset="1"
         id="stop2467" />
    </linearGradient>
    <linearGradient
       inkscape:collect="always"
       xlink:href="#linearGradient2463"
       id="linearGradient8678"
       gradientUnits="userSpaceOnUse"
       gradientTransform="matrix(1.0441567,0,0,0.986366,-0.4737425,0.2739667)"
       x1="11.3125"
       y1="21.6875"
       x2="11.3125"
       y2="33.216167" />
    <linearGradient
       inkscape:collect="always"
       id="linearGradient7644">
      <stop
         style="stop-color:#000000;stop-opacity:1;"
         offset="0"
         id="stop7646" />
      <stop
         style="stop-color:#000000;stop-opacity:0;"
         offset="1"
         id="stop7648" />
    </linearGradient>
    <linearGradient
       inkscape:collect="always"
       xlink:href="#linearGradient7644"
       id="linearGradient7650"
       x1="20.125"
       y1="24.43815"
       x2="20.125"
       y2="20"
       gradientUnits="userSpaceOnUse"
       gradientTransform="matrix(1,0,0,0.6666666,-2.7080474e-4,5.6666586)" />
    <linearGradient
       inkscape:collect="always"
       id="linearGradient7591">
      <stop
         style="stop-color:#ffffff;stop-opacity:1;"
         offset="0"
         id="stop7593" />
      <stop
         style="stop-color:#ffffff;stop-opacity:0;"
         offset="1"
         id="stop7595" />
    </linearGradient>
    <linearGradient
       inkscape:collect="always"
       xlink:href="#linearGradient7591"
       id="linearGradient7597"
       x1="41.820312"
       y1="33.109375"
       x2="41.820312"
       y2="33.46909"
       gradientUnits="userSpaceOnUse"
       gradientTransform="translate(0.4997292,-1.0000075)" />
    <linearGradient
       id="linearGradient2304">
      <stop
         style="stop-color:#babdb6"
         offset="0"
         id="stop2306" />
      <stop
         style="stop-color:#ffffff;stop-opacity:1;"
         offset="1"
         id="stop2308" />
    </linearGradient>
    <linearGradient
       inkscape:collect="always"
       xlink:href="#linearGradient2304"
       id="linearGradient2324"
       gradientUnits="userSpaceOnUse"
       gradientTransform="matrix(0.8853266,0,0,1.499469,5.4879983,-12.734338)"
       x1="38.742561"
       y1="29.743778"
       x2="38.742561"
       y2="31.167559" />
    <linearGradient
       id="linearGradient2326"
       inkscape:collect="always">
      <stop
         id="stop2328"
         offset="0"
         style="stop-color:#789e2d;stop-opacity:1" />
      <stop
         id="stop2330"
         offset="1"
         style="stop-color:#a7cc5c;stop-opacity:1" />
    </linearGradient>
    <linearGradient
       inkscape:collect="always"
       xlink:href="#linearGradient2326"
       id="linearGradient2322"
       gradientUnits="userSpaceOnUse"
       gradientTransform="matrix(0.6666666,0,0,1,14.99973,2.9999936)"
       x1="40.791222"
       y1="30.003317"
       x2="40.791222"
       y2="29.084894" />
    <linearGradient
       id="linearGradient1385">
      <stop
         style="stop-color:#888a85"
         offset="0"
         id="stop1387" />
      <stop
         style="stop-color:#888a85;stop-opacity:1"
         offset="1"
         id="stop1389" />
    </linearGradient>
    <linearGradient
       inkscape:collect="always"
       id="linearGradient2248">
      <stop
         style="stop-color:#ffffff;stop-opacity:1"
         offset="0"
         id="stop2250" />
      <stop
         style="stop-color:#babdb6"
         offset="1"
         id="stop2252" />
    </linearGradient>
    <linearGradient
       inkscape:collect="always"
       id="linearGradient2384">
      <stop
         style="stop-color:#2e3436"
         offset="0"
         id="stop2386" />
      <stop
         style="stop-color:#babdb6"
         offset="1"
         id="stop2388" />
    </linearGradient>
    <linearGradient
       inkscape:collect="always"
       xlink:href="#linearGradient2384"
       id="linearGradient7852"
       gradientUnits="userSpaceOnUse"
       x1="17.5"
       y1="30.755291"
       x2="17.5"
       y2="20.140139"
       gradientTransform="matrix(1.003915,0,0,0.9841327,0.9558078,-0.7030827)" />
    <linearGradient
       inkscape:collect="always"
       id="linearGradient2431">
      <stop
         style="stop-color:#ffffff;stop-opacity:1;"
         offset="0"
         id="stop2433" />
      <stop
         style="stop-color:#ffffff;stop-opacity:0;"
         offset="1"
         id="stop2435" />
    </linearGradient>
    <linearGradient
       inkscape:collect="always"
       xlink:href="#linearGradient2431"
       id="linearGradient7822"
       gradientUnits="userSpaceOnUse"
       gradientTransform="translate(0.9997292)"
       x1="3.6239223"
       y1="38.100166"
       x2="3.6239223"
       y2="42.336136" />
    <linearGradient
       inkscape:collect="always"
       id="linearGradient7434">
      <stop
         style="stop-color:#ffffff;stop-opacity:1;"
         offset="0"
         id="stop7436" />
      <stop
         style="stop-color:#ffffff;stop-opacity:0;"
         offset="1"
         id="stop7438" />
    </linearGradient>
    <linearGradient
       inkscape:collect="always"
       xlink:href="#linearGradient7434"
       id="linearGradient7440"
       x1="5.126524"
       y1="25.372583"
       x2="5.126524"
       y2="69.140259"
       gradientUnits="userSpaceOnUse"
       gradientTransform="translate(-2.7080474e-4,-2.0000071)" />
    <linearGradient
       inkscape:collect="always"
       id="linearGradient2683">
      <stop
         style="stop-color:#555753"
         offset="0"
         id="stop2685" />
      <stop
         style="stop-color:#2e3436"
         offset="1"
         id="stop2687" />
    </linearGradient>
    <linearGradient
       inkscape:collect="always"
       xlink:href="#linearGradient2683"
       id="linearGradient7820"
       gradientUnits="userSpaceOnUse"
       gradientTransform="translate(0.9997292)"
       x1="3.2640579"
       y1="35.072964"
       x2="3.2640579"
       y2="41.012157" />
    <linearGradient
       inkscape:collect="always"
       id="linearGradient2675">
      <stop
         style="stop-color:#2e3436"
         offset="0"
         id="stop2677" />
      <stop
         style="stop-color:#555753"
         offset="1"
         id="stop2679" />
    </linearGradient>
    <linearGradient
       inkscape:collect="always"
       xlink:href="#linearGradient2675"
       id="linearGradient7818"
       gradientUnits="userSpaceOnUse"
       gradientTransform="translate(0.9997292)"
       x1="5.0569911"
       y1="40.414822"
       x2="5.0569911"
       y2="37.14798" />
    <linearGradient
       id="linearGradient7426">
      <stop
         style="stop-color:#555753;stop-opacity:1;"
         offset="0"
         id="stop7428" />
      <stop
         style="stop-color:#888a85;stop-opacity:1"
         offset="1"
         id="stop7430" />
    </linearGradient>
    <linearGradient
       inkscape:collect="always"
       xlink:href="#linearGradient7426"
       id="linearGradient7432"
       x1="0.75"
       y1="67.989044"
       x2="0.75"
       y2="24.367777"
       gradientUnits="userSpaceOnUse"
       gradientTransform="translate(-2.7080474e-4,-2.0000071)" />
    <linearGradient
       inkscape:collect="always"
       id="linearGradient2222">
      <stop
         style="stop-color:#d3d7cf"
         offset="0"
         id="stop2224" />
      <stop
         style="stop-color:#eeeeec"
         offset="1"
         id="stop2226" />
    </linearGradient>
    <linearGradient
       inkscape:collect="always"
       xlink:href="#linearGradient2222"
       id="linearGradient2220"
       x1="35.5"
       y1="31.190165"
       x2="35.5"
       y2="24.248672"
       gradientUnits="userSpaceOnUse"
       gradientTransform="matrix(1,0,0,0.921571,-2.7080474e-4,4.2781386)" />
    <linearGradient
       inkscape:collect="always"
       id="linearGradient2311">
      <stop
         style="stop-color:#000000;stop-opacity:1;"
         offset="0"
         id="stop2313" />
      <stop
         style="stop-color:#000000;stop-opacity:0;"
         offset="1"
         id="stop2315" />
    </linearGradient>
    <radialGradient
       inkscape:collect="always"
       xlink:href="#linearGradient2311"
       id="radialGradient2317"
       cx="25.323261"
       cy="38.763416"
       fx="25.323261"
       fy="38.763416"
       r="25.234873"
       gradientTransform="matrix(1,0,0,0.194396,0,31.22797)"
       gradientUnits="userSpaceOnUse" />
    <linearGradient
       inkscape:collect="always"
       xlink:href="#linearGradient8124"
       id="linearGradient8112"
       gradientUnits="userSpaceOnUse"
       gradientTransform="matrix(1.129032,0,0,1,-4.0967751,-0.9999903)"
       x1="15.176787"
       y1="35.999989"
       x2="15.186372"
       y2="43" />
    <linearGradient
       inkscape:collect="always"
       xlink:href="#linearGradient2385"
       id="linearGradient8114"
       gradientUnits="userSpaceOnUse"
       gradientTransform="matrix(1.121212,0,0,1,-2.90909,-3e-7)"
       x1="9.96875"
       y1="40.96875"
       x2="10"
       y2="45.96875" />
    <linearGradient
       inkscape:collect="always"
       xlink:href="#linearGradient2395"
       id="linearGradient8116"
       gradientUnits="userSpaceOnUse"
       gradientTransform="matrix(1.121212,0,0,1,-2.90909,-3e-7)"
       x1="40.375"
       y1="45.625"
       x2="40.375"
       y2="39.999653" />
    <linearGradient
       inkscape:collect="always"
       xlink:href="#linearGradient2293"
       id="linearGradient8118"
       gradientUnits="userSpaceOnUse"
       gradientTransform="matrix(1.145363,0,0,1,-3.453632,2.9999997)"
       x1="34.482231"
       y1="42.001854"
       x2="34.482231"
       y2="32.515034" />
    <linearGradient
       inkscape:collect="always"
       xlink:href="#linearGradient2286"
       id="linearGradient8120"
       gradientUnits="userSpaceOnUse"
       gradientTransform="matrix(1.145363,0,0,1,-3.453632,2.9999997)"
       x1="41.498329"
       y1="40.899902"
       x2="41.498329"
       y2="35.788662" />
    <linearGradient
       inkscape:collect="always"
       xlink:href="#linearGradient2313"
       id="linearGradient8122"
       gradientUnits="userSpaceOnUse"
       gradientTransform="matrix(1.133333,0,0,1,-4.2,-3e-7)"
       x1="15.3125"
       y1="31.450399"
       x2="15.3125"
       y2="40.047997" />
    <linearGradient
       inkscape:collect="always"
       xlink:href="#linearGradient2248"
       id="linearGradient8142"
       gradientUnits="userSpaceOnUse"
       gradientTransform="matrix(1.079998,0,0,1.003906,-1.9199922,0.9780216)"
       x1="12.171284"
       y1="6.0832343"
       x2="27.907354"
       y2="42.402618" />
    <linearGradient
       inkscape:collect="always"
       xlink:href="#linearGradient1385"
       id="linearGradient8144"
       gradientUnits="userSpaceOnUse"
       gradientTransform="matrix(1.079998,0,0,1.003906,-1.9199922,-3.0376025)"
       x1="36.523464"
       y1="24.545469"
       x2="36.523464"
       y2="13.749178" />
    <linearGradient
       inkscape:collect="always"
       xlink:href="#linearGradient7392"
       id="linearGradient8333"
       gradientUnits="userSpaceOnUse"
       x1="27.568041"
       y1="20.773342"
       x2="15.437893"
       y2="-11.026649"
       gradientTransform="translate(-6.450907e-6,2.5027504)" />
    <linearGradient
       inkscape:collect="always"
       xlink:href="#linearGradient7486"
       id="linearGradient8335"
       gradientUnits="userSpaceOnUse"
       x1="21.875"
       y1="17.470722"
       x2="17.625"
       y2="2.5"
       gradientTransform="translate(-6.450907e-6,2.5027504)" />
    <linearGradient
       inkscape:collect="always"
       xlink:href="#linearGradient7368"
       id="linearGradient8337"
       gradientUnits="userSpaceOnUse"
       x1="21.566757"
       y1="6.1923113"
       x2="34.825008"
       y2="28.819729"
       gradientTransform="translate(-6.450907e-6,2.5027504)" />
  </defs>
  <sodipodi:namedview
     id="base"
     pagecolor="#ffffff"
     bordercolor="#666666"
     borderopacity="1.0"
     inkscape:pageopacity="0.0"
     inkscape:pageshadow="2"
     inkscape:zoom="5.6568543"
     inkscape:cx="15.998291"
     inkscape:cy="22.804193"
     inkscape:current-layer="layer1"
     showgrid="true"
     inkscape:grid-bbox="true"
     inkscape:document-units="px"
     inkscape:window-width="1168"
     inkscape:window-height="845"
     inkscape:window-x="339"
     inkscape:window-y="123"
     inkscape:showpageshadow="2"
     inkscape:pagecheckerboard="0"
     inkscape:deskcolor="#d1d1d1"
     inkscape:window-maximized="0">
    <inkscape:grid
       type="xygrid"
       id="grid7252"
       originx="0"
       originy="0" />
  </sodipodi:namedview>
  <metadata
     id="metadata8686">
    <rdf:RDF>
      <cc:Work
         rdf:about="">
        <dc:format>image/svg+xml</dc:format>
        <dc:type
           rdf:resource="http://purl.org/dc/dcmitype/StillImage" />
      </cc:Work>
    </rdf:RDF>
  </metadata>
  <g
     id="layer1"
     inkscape:label="Layer 1"
     inkscape:groupmode="layer">
    <path
       style="display:inline;opacity:0.8;fill:url(#linearGradient8333);fill-opacity:1;fill-rule:evenodd;stroke:url(#linearGradient8335);stroke-width:1;stroke-linecap:square;stroke-linejoin:miter;stroke-miterlimit:4;stroke-dashoffset:0;stroke-opacity:1"
       d="m 24,5.5 c -2.706242,0 -5.499999,2 -5.5,2 -0.568877,0 -1,3.984044 -1,5 v 12 h 13 v -12 c 0,-1.015956 -0.431122,-5 -1,-5 0,0 -2.793758,-2 -5.5,-2 z m 0,6 c 0.827999,0 1.5,-0.536 1.5,2.5 0,3.035999 -0.6395,7.50275 -1.4675,7.50275 -0.828,0 -1.5325,-4.466751 -1.5325,-7.50275 0,-3.036 0.672,-2.5 1.5,-2.5 z"
       id="path4978"
       sodipodi:nodetypes="cscccccccsssc" />
    <path
       sodipodi:nodetypes="ccsssccccssscc"
       id="path7366"
       d="m 24,6.5 c -2.215816,0 -4.781256,1.8152504 -4.781256,1.8152504 -0.0014,0.00322 -0.02974,-0.00349 -0.03125,0 -0.01757,0.040692 -0.0085,0.055839 -0.03125,0.125 C 19.061281,8.7287523 18.963653,9.206771 18.874994,9.7215 18.697676,10.75096 18.5,12.143029 18.5,12.5 l 0.09374,11.159 h 10.875 L 29.5,12.5 c 0,-0.356973 -0.135188,-1.74904 -0.312506,-2.7785 -0.08866,-0.514729 -0.186287,-0.9927477 -0.28125,-1.2812496 -0.02276,-0.069161 -0.01368,-0.084308 -0.03125,-0.125 -0.0055,-0.012789 -0.02716,-0.022203 -0.03125,-0.03125 C 28.843744,8.2840004 26.215815,6.5 24,6.5 Z"
       style="display:inline;opacity:0.7;fill:none;fill-opacity:1;fill-rule:evenodd;stroke:url(#linearGradient8337);stroke-width:1;stroke-linecap:square;stroke-linejoin:round;stroke-miterlimit:4;stroke-dashoffset:0;stroke-opacity:1" />
    <ellipse
       style="display:inline;overflow:visible;visibility:visible;opacity:0.3;fill:url(#radialGradient2317);fill-opacity:1;fill-rule:nonzero;stroke:none;stroke-width:1;stroke-linecap:round;stroke-linejoin:miter;stroke-miterlimit:4;stroke-dasharray:none;stroke-dashoffset:0;stroke-opacity:1;marker:none;marker-start:none;marker-mid:none;marker-end:none"
       id="path2309"
       transform="matrix(1.069348,0,0,0.56059,-3.064518,20.519612)"
       cx="25.323261"
       cy="38.763416"
       rx="25.234873"
       ry="4.9055533" />
    <path
       style="display:inline;overflow:visible;visibility:visible;opacity:1;fill:url(#linearGradient2220);fill-opacity:1;fill-rule:nonzero;stroke:url(#linearGradient7432);stroke-width:1;stroke-linecap:square;stroke-linejoin:round;stroke-miterlimit:4;stroke-dasharray:none;stroke-dashoffset:0;stroke-opacity:1;marker:none;marker-start:none;marker-mid:none;marker-end:none"
       d="m 6.9997292,19.499992 -2.25,2.74879 c -2.1505939,2.627347 -3.25,5.068643 -3.25,8.754929 v 5.496281 H 46.499729 v -5.496281 c 0,-3.686286 -1.099407,-6.127583 -3.25,-8.754929 l -2.25,-2.74879 z"
       id="rect1314"
       sodipodi:nodetypes="czzcczzcc" />
    <path
       sodipodi:nodetypes="ccccccc"
       id="rect2412"
       d="m 2.4997292,36.499992 v 2.90625 c 0,1.151747 0.942003,2.09375 2.0937499,2.09375 H 43.405979 c 1.151747,0 2.09375,-0.942005 2.09375,-2.09375 v -2.90625 z"
       style="display:inline;opacity:1;fill:url(#linearGradient7818);fill-opacity:1;stroke:url(#linearGradient7820);stroke-width:1;stroke-linecap:round;stroke-linejoin:round;stroke-miterlimit:4;stroke-dasharray:none;stroke-opacity:1;enable-background:new" />
    <path
       style="display:inline;overflow:visible;visibility:visible;opacity:1;fill:none;fill-opacity:1;fill-rule:nonzero;stroke:url(#linearGradient7440);stroke-width:0.999999;stroke-linecap:square;stroke-linejoin:miter;stroke-miterlimit:4;stroke-dasharray:none;stroke-dashoffset:0;stroke-opacity:1;marker:none;marker-start:none;marker-mid:none;marker-end:none"
       d="m 7.5116275,20.562492 -1.9121622,2.289256 c -2.0353965,2.436793 -3.0997361,4.486071 -3.0997361,7.85621 v 4.792034 H 45.499724 v -4.792034 c 0,-3.370139 -1.072112,-5.413519 -3.099735,-7.85621 l -1.90026,-2.289256 z"
       id="path2231"
       sodipodi:nodetypes="czzcczzcc" />
    <path
       sodipodi:nodetypes="ccccccc"
       id="rect2428"
       d="m 44.499729,37.499992 v 2 c 0,0.518817 -0.481183,1 -1,1 H 4.4997291 c -0.5188167,0 -0.9999999,-0.481183 -0.9999999,-1 v -2 z"
       style="display:inline;opacity:0.08;fill:none;fill-opacity:1;stroke:url(#linearGradient7822);stroke-width:1;stroke-linecap:round;stroke-linejoin:miter;stroke-miterlimit:4;stroke-opacity:1;enable-background:new" />
    <rect
       y="20.49988"
       x="9.4996176"
       height="10.000113"
       width="29.000111"
       id="rect2319"
       style="display:inline;opacity:1;fill:url(#linearGradient7852);fill-opacity:1;stroke:#2e3436;stroke-width:0.999777;stroke-linecap:round;stroke-linejoin:round;stroke-miterlimit:4;stroke-dasharray:none;stroke-opacity:1;enable-background:new"
       ry="0.5"
       rx="0.5078125" />
    <path
       style="display:inline;overflow:visible;visibility:visible;fill:url(#linearGradient8142);fill-opacity:1;fill-rule:nonzero;stroke:url(#linearGradient8144);stroke-width:1;stroke-linecap:square;stroke-linejoin:round;stroke-miterlimit:4;stroke-dashoffset:0;stroke-opacity:1;marker:none;marker-start:none;marker-mid:none;marker-end:none"
       d="m 12.119999,14.499504 h 23.759982 c 0.897479,0 1.619999,0.671613 1.619999,1.505859 V 22.562 L 10.5,21.558094 v -5.552731 c 0,-0.834246 0.722519,-1.505859 1.619999,-1.505859 z"
       id="rect2233"
       sodipodi:nodetypes="ccccccc" />
    <rect
       style="display:inline;overflow:visible;visibility:visible;opacity:1;fill:none;fill-opacity:1;fill-rule:nonzero;stroke:#ffffff;stroke-width:1;stroke-linecap:square;stroke-linejoin:round;stroke-miterlimit:4;stroke-dasharray:none;stroke-dashoffset:0;stroke-opacity:1;marker:none;marker-start:none;marker-mid:none;marker-end:none"
       id="rect2256"
       width="24.998867"
       height="5.9983101"
       x="11.50003"
       y="15.4995"
       rx="0.62364197"
       ry="0.53124934" />
    <rect
       style="display:inline;overflow:visible;visibility:visible;opacity:1;fill:url(#linearGradient2322);fill-opacity:1;fill-rule:nonzero;stroke:url(#linearGradient2324);stroke-width:1;stroke-linecap:square;stroke-linejoin:miter;stroke-miterlimit:4;stroke-dasharray:none;stroke-dashoffset:0;stroke-opacity:1;marker:none;marker-start:none;marker-mid:none;marker-end:none"
       id="rect2320"
       width="2.9999998"
       height="2"
       x="40.999729"
       y="31.499992"
       rx="0.99999988"
       ry="1" />
    <g
       transform="translate(-222.01537,20.999982)"
       style="display:inline"
       inkscape:label="base"
       id="g2637" />
    <g
       id="g6239"
       inkscape:label="base"
       style="display:inline"
       transform="translate(-161.92036,20.506079)" />
    <g
       id="g6266"
       inkscape:label="base"
       style="display:inline"
       transform="translate(60.094735,-1.4939107)" />
    <rect
       style="display:inline;overflow:visible;visibility:visible;opacity:1;fill:url(#linearGradient7597);fill-opacity:1;fill-rule:nonzero;stroke:none;stroke-width:1;stroke-linecap:square;stroke-linejoin:miter;stroke-miterlimit:4;stroke-dasharray:none;stroke-dashoffset:0;stroke-opacity:1;marker:none;marker-start:none;marker-mid:none;marker-end:none"
       id="rect7589"
       width="1.5468748"
       height="0.35937488"
       x="41.734104"
       y="32.109367"
       rx="0.51562488"
       ry="0.17968744" />
    <rect
       style="display:inline;opacity:0.15;fill:url(#linearGradient7650);fill-opacity:1;fill-rule:evenodd;stroke:none;stroke-width:1;stroke-linecap:round;stroke-linejoin:round;stroke-miterlimit:10.433;stroke-dasharray:none;stroke-opacity:0"
       id="rect7639"
       width="28"
       height="2"
       x="9.9997292"
       y="18.99999"
       rx="0"
       ry="0" />
    <rect
       y="22.500362"
       x="10.499913"
       height="6.9996305"
       width="26.999687"
       id="rect2459"
       style="display:inline;opacity:0.243137;fill:none;fill-opacity:1;stroke:url(#linearGradient8678);stroke-width:1;stroke-linecap:round;stroke-linejoin:miter;stroke-miterlimit:4;stroke-dasharray:none;stroke-opacity:1;enable-background:new" />
    <path
       style="display:inline;fill:#888a85;fill-opacity:0.75;fill-rule:evenodd;stroke:#2e3436;stroke-width:0.999941;stroke-linecap:square;stroke-linejoin:miter;stroke-miterlimit:4;stroke-dasharray:none;stroke-opacity:1;enable-background:new"
       d="M 10.499699,21.500022 H 37.499817"
       id="path2259"
       sodipodi:nodetypes="cc" />
    <path
       sodipodi:nodetypes="ccccc"
       id="rect2440"
       d="M 9.9997292,21.999992 H 37.999729 v 2.993392 C 31.538191,23.99008 14.845883,22.986776 9.9997292,26.999992 Z"
       style="display:inline;opacity:0.262745;fill:#ffffff;fill-opacity:1;stroke:none;stroke-width:1;stroke-linecap:round;stroke-linejoin:miter;stroke-miterlimit:4;stroke-opacity:1;enable-background:new" />
    <path
       sodipodi:nodetypes="ccccccc"
       id="path4559"
       d="M 9.1935479,35.500009 38.806453,35.5 c 0.963685,0 1.693549,0.635537 1.693549,1.29956 V 41.5 l -33.0000021,9e-6 v -4.70044 c 0,-0.740438 0.7736581,-1.29956 1.693548,-1.29956 z"
       style="display:inline;overflow:visible;visibility:visible;fill:#6a6f64;fill-opacity:1;fill-rule:nonzero;stroke:url(#linearGradient8112);stroke-width:1;stroke-linecap:square;stroke-linejoin:miter;stroke-miterlimit:4;stroke-dasharray:none;stroke-dashoffset:0;stroke-opacity:1;marker:none;marker-start:none;marker-mid:none;marker-end:none" />
    <path
       sodipodi:nodetypes="ccccccccc"
       id="path2379"
       d="m 8.30303,40.5 h 31.393936 c 1.64678,0 1.121212,2 1.121212,2 l 1.681818,2.5 c 0,1.385 -1.250151,1.5 -2.80303,1.5 H 8.30303 C 6.7501514,46.5 5.5,46.385 5.5,45 l 1.681818,-2.5 c 0,0 -0.560606,-2 1.121212,-2 z"
       style="display:inline;overflow:visible;visibility:visible;fill:url(#linearGradient8114);fill-opacity:1;fill-rule:nonzero;stroke:url(#linearGradient8116);stroke-width:1;stroke-linecap:round;stroke-linejoin:round;stroke-miterlimit:4;stroke-dashoffset:0;stroke-opacity:1;marker:none;marker-start:none;marker-mid:none;marker-end:none" />
    <path
       sodipodi:nodetypes="cccc"
       id="path2275"
       d="m 38.352117,36 c 0,5 1.718045,8.5 1.718045,8.5 H 7.999998 c 0,0 1.7180445,-3.5 1.7180445,-8.5"
       style="display:inline;overflow:visible;visibility:visible;fill:url(#linearGradient8118);fill-opacity:1;fill-rule:nonzero;stroke:url(#linearGradient8120);stroke-width:1;stroke-linecap:butt;stroke-linejoin:round;stroke-miterlimit:4;stroke-dashoffset:0;stroke-opacity:1;marker:none;marker-start:none;marker-mid:none;marker-end:none" />
    <g
       id="g6409"
       style="display:inline;opacity:0.2;stroke:#2e3436">
      <path
         id="path5436"
         d="M 13,39.5 H 25"
         style="fill:none;fill-rule:evenodd;stroke:#2e3436;stroke-width:1px;stroke-linecap:round;stroke-linejoin:miter;stroke-opacity:1"
         sodipodi:nodetypes="cc" />
      <path
         id="path5438"
         d="M 13.204658,37.5 H 34.795343"
         style="fill:none;fill-rule:evenodd;stroke:#2e3436;stroke-width:1px;stroke-linecap:round;stroke-linejoin:miter;stroke-opacity:1" />
    </g>
    <path
       sodipodi:nodetypes="cccc"
       id="path2335"
       d="m 37.340001,36 c -0.03625,4 1.16,7.5 1.16,7.5 h -29 c 0,0 1.16,-3.5 1.16,-7.5"
       style="display:inline;overflow:visible;visibility:visible;opacity:1;fill:none;fill-opacity:1;fill-rule:nonzero;stroke:#ffffff;stroke-width:1;stroke-linecap:butt;stroke-linejoin:miter;stroke-miterlimit:4;stroke-dashoffset:0;stroke-opacity:1;marker:none;marker-start:none;marker-mid:none;marker-end:none" />
    <path
       sodipodi:nodetypes="ccccccc"
       id="path2300"
       d="M 9.133333,36 H 38.866667 C 39.800669,36 40,36.446647 40,37 v 4 H 8 v -4 c 0,-0.617032 0.2417853,-1 1.133333,-1 z"
       style="display:inline;overflow:visible;visibility:visible;opacity:0.505882;fill:url(#linearGradient8122);fill-opacity:1;fill-rule:nonzero;stroke:none;stroke-width:1;stroke-linecap:square;stroke-linejoin:miter;stroke-miterlimit:4;stroke-dasharray:none;stroke-dashoffset:0;stroke-opacity:1;marker:none;marker-start:none;marker-mid:none;marker-end:none" />
    <text
       xml:space="preserve"
       style="font-weight:bold;font-size:19.9538px;line-height:44.9904px;font-family:sans-serif;-inkscape-font-specification:'sans-serif, Bold';letter-spacing:0px;word-spacing:0px;writing-mode:lr-tb;fill:#ffff00;stroke:#000000;stroke-width:0.623558px;stroke-linecap:butt;stroke-linejoin:miter;stroke-opacity:1"
       x="19.290903"
       y="17.941883"
       id="text933"><tspan
         sodipodi:role="line"
         id="tspan931"
         x="19.290903"
         y="17.941883"
         style="fill:#ffff00;stroke-width:0.623558px">1</tspan></text>
  </g>
</svg>
