<?xml version="1.0" encoding="UTF-8" standalone="no"?>
<!-- Created with Inkscape (http://www.inkscape.org/) -->

<svg
   version="1.1"
   id="svg2"
   width="240.00107"
   height="109.6063"
   viewBox="0 0 240.00107 109.6063"
   sodipodi:docname="etiquette.svg"
   inkscape:version="1.2.2 (b0a8486541, 2022-12-01)"
   xmlns:inkscape="http://www.inkscape.org/namespaces/inkscape"
   xmlns:sodipodi="http://sodipodi.sourceforge.net/DTD/sodipodi-0.dtd"
   xmlns="http://www.w3.org/2000/svg"
   xmlns:svg="http://www.w3.org/2000/svg">
  <defs
     id="defs6">
    <clipPath
       clipPathUnits="userSpaceOnUse"
       id="clipPath22">
      <path
         d="m 174.3307,0 v 0 l 0.099,8.63e-4 0.0989,0.002591 0.0988,0.004316 0.0988,0.00604 0.0986,0.007763 0.0985,0.009484 0.0983,0.011201 0.0981,0.012915 0.0979,0.014625 0.0976,0.016331 0.0973,0.018032 0.0969,0.019727 0.0966,0.021416 0.0962,0.023098 0.0958,0.024774 0.0954,0.026443 0.0948,0.028102 0.0944,0.029754 0.0938,0.031396 0.0933,0.033029 0.0927,0.034652 0.0921,0.036264 0.0914,0.037865 0.0907,0.039455 0.0901,0.041032 0.0893,0.042598 0.0885,0.04415 0.0878,0.045688 0.0869,0.047213 0.0862,0.048724 0.0852,0.050219 0.0844,0.0517 0.0834,0.053164 0.0825,0.054612 0.0816,0.056044 0.0805,0.057458 0.0796,0.058856 0.0785,0.060235 0.0774,0.061595 0.0764,0.062938 0.0752,0.064261 0.0741,0.065564 0.073,0.066847 0.0717,0.06811 0.0706,0.069353 0.0694,0.070574 0.0681,0.071773 0.0668,0.072951 0.0656,0.074107 0.0642,0.075239 0.063,0.07635 0.0616,0.077436 0.0602,0.0785 0.0589,0.079538 0.0574,0.080554 0.0561,0.081545 0.0546,0.08251 0.0531,0.083451 0.0517,0.084365 0.0503,0.085256 0.0487,0.086118 0.0472,0.086956 0.0457,0.087767 0.0441,0.088551 0.0426,0.089307 0.0411,0.090038 0.0394,0.09074 0.0379,0.091414 0.0362,0.092062 0.0347,0.092681 0.033,0.093271 0.0314,0.093833 0.0298,0.094367 0.0281,0.094872 0.0264,0.095348 0.0248,0.095795 0.0231,0.096212 0.0214,0.096601 0.0197,0.096961 0.0181,0.097289 0.0163,0.09759 0.0146,0.097859 0.0129,0.098101 0.0112,0.09831 0.01,0.098491 0.008,0.098642 0.006,0.098762 0.004,0.098852 0.003,0.098913 9e-4,0.098942 v 70.866139 0 l -9e-4,0.09895 -0.003,0.09891 -0.004,0.09885 -0.006,0.09876 -0.008,0.09864 -0.01,0.0985 -0.0112,0.09831 -0.0129,0.0981 -0.0146,0.09786 -0.0163,0.09759 -0.0181,0.09728 -0.0197,0.09697 -0.0214,0.0966 -0.0231,0.09621 -0.0248,0.09579 -0.0264,0.09535 -0.0281,0.09487 -0.0298,0.09437 -0.0314,0.09383 -0.033,0.09327 -0.0347,0.09269 -0.0362,0.09206 -0.0379,0.09141 -0.0394,0.09074 -0.0411,0.09004 -0.0426,0.08931 -0.0441,0.08855 -0.0457,0.08776 -0.0472,0.08696 -0.0487,0.08612 -0.0503,0.08525 -0.0517,0.08437 -0.0531,0.08345 -0.0546,0.08251 -0.0561,0.08154 -0.0574,0.08056 -0.0589,0.07954 -0.0602,0.0785 -0.0616,0.07743 -0.063,0.07635 -0.0642,0.07524 -0.0656,0.07411 -0.0668,0.07295 -0.0681,0.07177 -0.0694,0.07058 -0.0706,0.06935 -0.0717,0.06811 -0.073,0.06685 -0.0741,0.06556 -0.0752,0.06426 -0.0764,0.06294 -0.0774,0.0616 -0.0785,0.06023 -0.0796,0.05886 -0.0805,0.05745 -0.0816,0.05605 -0.0825,0.05461 -0.0834,0.05316 -0.0844,0.0517 -0.0852,0.05022 -0.0862,0.04873 -0.0869,0.04721 -0.0878,0.04569 -0.0885,0.04415 -0.0893,0.0426 -0.0901,0.04103 -0.0907,0.03945 -0.0914,0.03787 -0.0921,0.03626 -0.0927,0.03465 -0.0933,0.03303 -0.0938,0.0314 -0.0944,0.02975 -0.0948,0.02811 -0.0954,0.02644 -0.0958,0.02477 -0.0962,0.0231 -0.0966,0.02142 -0.0969,0.01972 -0.0973,0.01804 -0.0976,0.01633 -0.0979,0.01462 -0.0981,0.01292 -0.0983,0.0112 -0.0985,0.0095 -0.0986,0.0078 -0.0988,0.006 -0.0988,0.0043 -0.0989,0.0026 -0.099,8.6e-4 H 5.669291 v 0 L 5.570349,82.20387 5.471436,82.20127 5.372584,82.19697 5.273822,82.19097 5.17518,82.18315 5.076689,82.17367 4.978379,82.16247 4.880278,82.14955 4.782419,82.13493 4.684829,82.1186 4.58754,82.10056 4.490579,82.08084 4.393978,82.05942 4.297766,82.03632 4.201971,82.01155 4.106623,81.98511 4.011751,81.957 3.917384,81.92725 3.823551,81.89585 3.73028,81.86282 3.637599,81.82817 3.545537,81.79191 3.454123,81.75404 3.363383,81.71459 3.273345,81.67356 3.184038,81.63096 3.095487,81.58681 3.00772,81.54112 2.920764,81.49391 2.834646,81.44518 2.74939,81.39496 2.665025,81.34326 2.581574,81.2901 2.499064,81.23549 2.417519,81.17944 2.336965,81.12199 2.257427,81.06313 2.178927,81.0029 2.101491,80.9413 2.025141,80.87836 1.949902,80.8141 1.875795,80.74854 1.802844,80.68169 1.731071,80.61358 1.660497,80.54423 1.591144,80.47365 1.523034,80.40188 1.456187,80.32893 1.390623,80.25482 1.326362,80.17958 1.263424,80.10323 1.201829,80.0258 1.141594,79.9473 1.082738,79.86776 1.02528,79.7872 0.969236,79.70566 0.914624,79.62315 0.86146,79.5397 0.80976,79.45533 0.759541,79.37008 0.710817,79.28396 0.663604,79.197 0.617916,79.10924 0.573766,79.02069 0.531168,78.93138 0.490136,78.84134 0.450681,78.7506 0.412816,78.65919 0.376552,78.56713 0.3419,78.47444 0.308871,78.38117 0.277475,78.28734 0.247721,78.19297 0.219619,78.0981 0.193176,78.00275 0.168402,77.90696 0.145304,77.81075 0.123888,77.71415 0.104161,77.61718 0.086129,77.5199 0.069798,77.42231 0.055173,77.32445 0.042258,77.22635 0.031057,77.12804 0.021573,77.02954 0.01381,76.9309 0.00777,76.83214 0.003454,76.73329 8.63e-4,76.63438 0,76.53543 v -70.866139 0 L 8.63e-4,5.570349 0.003454,5.471436 0.00777,5.372584 0.01381,5.273822 0.021573,5.17518 0.031057,5.076689 0.042258,4.978379 0.055173,4.880278 0.069798,4.782419 0.086129,4.684829 0.104161,4.58754 0.123888,4.490579 0.145304,4.393978 0.168402,4.297766 0.193176,4.201971 0.219619,4.106623 0.247721,4.011751 0.277475,3.917384 0.308871,3.823551 0.3419,3.73028 0.376552,3.637599 0.412816,3.545537 0.450681,3.454123 0.490136,3.363383 0.531168,3.273345 0.573766,3.184038 0.617916,3.095487 0.663604,3.00772 0.710817,2.920764 0.759541,2.834646 0.80976,2.74939 0.86146,2.665025 0.914624,2.581574 0.969236,2.499064 1.02528,2.417519 1.082738,2.336965 1.141594,2.257427 1.201829,2.178927 1.263424,2.101491 1.326362,2.025141 1.390623,1.949902 1.456187,1.875795 1.523034,1.802844 1.591144,1.731071 1.660497,1.660497 1.731071,1.591144 1.802844,1.523034 1.875795,1.456187 1.949902,1.390623 2.025141,1.326362 2.101491,1.263424 2.178927,1.201829 2.257427,1.141594 2.336965,1.082738 2.417519,1.02528 2.499064,0.969236 2.581574,0.914624 2.665025,0.86146 2.74939,0.80976 2.834646,0.759541 2.920764,0.710817 3.00772,0.663604 3.095487,0.617916 3.184038,0.573766 3.273345,0.531168 3.363383,0.490136 3.454123,0.450681 3.545537,0.412816 3.637599,0.376552 3.73028,0.3419 3.823551,0.308871 3.917384,0.277475 4.011751,0.247721 4.106623,0.219619 4.201971,0.193176 4.297766,0.168402 4.393978,0.145304 4.490579,0.123888 4.58754,0.104161 4.684829,0.086129 4.782419,0.069798 4.880278,0.055173 4.978379,0.042258 5.076689,0.031057 5.17518,0.021573 5.273822,0.01381 5.372584,0.00777 5.471436,0.003454 5.570349,8.63e-4 5.669291,0 Z"
         clip-rule="evenodd"
         id="path20" />
    </clipPath>
    <clipPath
       clipPathUnits="userSpaceOnUse"
       id="clipPath30">
      <path
         d="M 0,0 H 158.7402 V 76.53543 H 0 Z"
         clip-rule="evenodd"
         id="path28" />
    </clipPath>
    <clipPath
       clipPathUnits="userSpaceOnUse"
       id="clipPath228">
      <path
         d="m 174.3307,0 v 0 l 0.099,8.63e-4 0.0989,0.002591 0.0988,0.004316 0.0988,0.00604 0.0986,0.007763 0.0985,0.009484 0.0983,0.011201 0.0981,0.012915 0.0979,0.014625 0.0976,0.016331 0.0973,0.018032 0.0969,0.019727 0.0966,0.021416 0.0962,0.023098 0.0958,0.024774 0.0954,0.026443 0.0948,0.028102 0.0944,0.029754 0.0938,0.031396 0.0933,0.033029 0.0927,0.034652 0.0921,0.036264 0.0914,0.037865 0.0907,0.039455 0.0901,0.041032 0.0893,0.042598 0.0885,0.04415 0.0878,0.045688 0.0869,0.047213 0.0862,0.048724 0.0852,0.050219 0.0844,0.0517 0.0834,0.053164 0.0825,0.054612 0.0816,0.056044 0.0805,0.057458 0.0796,0.058856 0.0785,0.060235 0.0774,0.061595 0.0764,0.062938 0.0752,0.064261 0.0741,0.065564 0.073,0.066847 0.0717,0.06811 0.0706,0.069353 0.0694,0.070574 0.0681,0.071773 0.0668,0.072951 0.0656,0.074107 0.0642,0.075239 0.063,0.07635 0.0616,0.077436 0.0602,0.0785 0.0589,0.079538 0.0574,0.080554 0.0561,0.081545 0.0546,0.08251 0.0531,0.083451 0.0517,0.084365 0.0503,0.085256 0.0487,0.086118 0.0472,0.086956 0.0457,0.087767 0.0441,0.088551 0.0426,0.089307 0.0411,0.090038 0.0394,0.09074 0.0379,0.091414 0.0362,0.092062 0.0347,0.092681 0.033,0.093271 0.0314,0.093833 0.0298,0.094367 0.0281,0.094872 0.0264,0.095348 0.0248,0.095795 0.0231,0.096212 0.0214,0.096601 0.0197,0.096961 0.0181,0.097289 0.0163,0.09759 0.0146,0.097859 0.0129,0.098101 0.0112,0.09831 0.01,0.098491 0.008,0.098642 0.006,0.098762 0.004,0.098852 0.003,0.098913 9e-4,0.098942 v 70.866139 0 l -9e-4,0.09895 -0.003,0.09891 -0.004,0.09885 -0.006,0.09876 -0.008,0.09864 -0.01,0.0985 -0.0112,0.09831 -0.0129,0.0981 -0.0146,0.09786 -0.0163,0.09759 -0.0181,0.09728 -0.0197,0.09697 -0.0214,0.0966 -0.0231,0.09621 -0.0248,0.09579 -0.0264,0.09535 -0.0281,0.09487 -0.0298,0.09437 -0.0314,0.09383 -0.033,0.09327 -0.0347,0.09269 -0.0362,0.09206 -0.0379,0.09141 -0.0394,0.09074 -0.0411,0.09004 -0.0426,0.08931 -0.0441,0.08855 -0.0457,0.08776 -0.0472,0.08696 -0.0487,0.08612 -0.0503,0.08525 -0.0517,0.08437 -0.0531,0.08345 -0.0546,0.08251 -0.0561,0.08154 -0.0574,0.08056 -0.0589,0.07954 -0.0602,0.0785 -0.0616,0.07743 -0.063,0.07635 -0.0642,0.07524 -0.0656,0.07411 -0.0668,0.07295 -0.0681,0.07177 -0.0694,0.07058 -0.0706,0.06935 -0.0717,0.06811 -0.073,0.06685 -0.0741,0.06556 -0.0752,0.06426 -0.0764,0.06294 -0.0774,0.0616 -0.0785,0.06023 -0.0796,0.05886 -0.0805,0.05745 -0.0816,0.05605 -0.0825,0.05461 -0.0834,0.05316 -0.0844,0.0517 -0.0852,0.05022 -0.0862,0.04873 -0.0869,0.04721 -0.0878,0.04569 -0.0885,0.04415 -0.0893,0.0426 -0.0901,0.04103 -0.0907,0.03945 -0.0914,0.03787 -0.0921,0.03626 -0.0927,0.03465 -0.0933,0.03303 -0.0938,0.0314 -0.0944,0.02975 -0.0948,0.02811 -0.0954,0.02644 -0.0958,0.02477 -0.0962,0.0231 -0.0966,0.02142 -0.0969,0.01972 -0.0973,0.01804 -0.0976,0.01633 -0.0979,0.01462 -0.0981,0.01292 -0.0983,0.0112 -0.0985,0.0095 -0.0986,0.0078 -0.0988,0.006 -0.0988,0.0043 -0.0989,0.0026 -0.099,8.6e-4 H 5.669291 v 0 L 5.570349,82.20387 5.471436,82.20127 5.372584,82.19697 5.273822,82.19097 5.17518,82.18315 5.076689,82.17367 4.978379,82.16247 4.880278,82.14955 4.782419,82.13493 4.684829,82.1186 4.58754,82.10056 4.490579,82.08084 4.393978,82.05942 4.297766,82.03632 4.201971,82.01155 4.106623,81.98511 4.011751,81.957 3.917384,81.92725 3.823551,81.89585 3.73028,81.86282 3.637599,81.82817 3.545537,81.79191 3.454123,81.75404 3.363383,81.71459 3.273345,81.67356 3.184038,81.63096 3.095487,81.58681 3.00772,81.54112 2.920764,81.49391 2.834646,81.44518 2.74939,81.39496 2.665025,81.34326 2.581574,81.2901 2.499064,81.23549 2.417519,81.17944 2.336965,81.12199 2.257427,81.06313 2.178927,81.0029 2.101491,80.9413 2.025141,80.87836 1.949902,80.8141 1.875795,80.74854 1.802844,80.68169 1.731071,80.61358 1.660497,80.54423 1.591144,80.47365 1.523034,80.40188 1.456187,80.32893 1.390623,80.25482 1.326362,80.17958 1.263424,80.10323 1.201829,80.0258 1.141594,79.9473 1.082738,79.86776 1.02528,79.7872 0.969236,79.70566 0.914624,79.62315 0.86146,79.5397 0.80976,79.45533 0.759541,79.37008 0.710817,79.28396 0.663604,79.197 0.617916,79.10924 0.573766,79.02069 0.531168,78.93138 0.490136,78.84134 0.450681,78.7506 0.412816,78.65919 0.376552,78.56713 0.3419,78.47444 0.308871,78.38117 0.277475,78.28734 0.247721,78.19297 0.219619,78.0981 0.193176,78.00275 0.168402,77.90696 0.145304,77.81075 0.123888,77.71415 0.104161,77.61718 0.086129,77.5199 0.069798,77.42231 0.055173,77.32445 0.042258,77.22635 0.031057,77.12804 0.021573,77.02954 0.01381,76.9309 0.00777,76.83214 0.003454,76.73329 8.63e-4,76.63438 0,76.53543 v -70.866139 0 L 8.63e-4,5.570349 0.003454,5.471436 0.00777,5.372584 0.01381,5.273822 0.021573,5.17518 0.031057,5.076689 0.042258,4.978379 0.055173,4.880278 0.069798,4.782419 0.086129,4.684829 0.104161,4.58754 0.123888,4.490579 0.145304,4.393978 0.168402,4.297766 0.193176,4.201971 0.219619,4.106623 0.247721,4.011751 0.277475,3.917384 0.308871,3.823551 0.3419,3.73028 0.376552,3.637599 0.412816,3.545537 0.450681,3.454123 0.490136,3.363383 0.531168,3.273345 0.573766,3.184038 0.617916,3.095487 0.663604,3.00772 0.710817,2.920764 0.759541,2.834646 0.80976,2.74939 0.86146,2.665025 0.914624,2.581574 0.969236,2.499064 1.02528,2.417519 1.082738,2.336965 1.141594,2.257427 1.201829,2.178927 1.263424,2.101491 1.326362,2.025141 1.390623,1.949902 1.456187,1.875795 1.523034,1.802844 1.591144,1.731071 1.660497,1.660497 1.731071,1.591144 1.802844,1.523034 1.875795,1.456187 1.949902,1.390623 2.025141,1.326362 2.101491,1.263424 2.178927,1.201829 2.257427,1.141594 2.336965,1.082738 2.417519,1.02528 2.499064,0.969236 2.581574,0.914624 2.665025,0.86146 2.74939,0.80976 2.834646,0.759541 2.920764,0.710817 3.00772,0.663604 3.095487,0.617916 3.184038,0.573766 3.273345,0.531168 3.363383,0.490136 3.454123,0.450681 3.545537,0.412816 3.637599,0.376552 3.73028,0.3419 3.823551,0.308871 3.917384,0.277475 4.011751,0.247721 4.106623,0.219619 4.201971,0.193176 4.297766,0.168402 4.393978,0.145304 4.490579,0.123888 4.58754,0.104161 4.684829,0.086129 4.782419,0.069798 4.880278,0.055173 4.978379,0.042258 5.076689,0.031057 5.17518,0.021573 5.273822,0.01381 5.372584,0.00777 5.471436,0.003454 5.570349,8.63e-4 5.669291,0 Z"
         clip-rule="evenodd"
         id="path226" />
    </clipPath>
    <clipPath
       clipPathUnits="userSpaceOnUse"
       id="clipPath236">
      <path
         d="M 0,0 H 158.7402 V 76.53543 H 0 Z"
         clip-rule="evenodd"
         id="path234" />
    </clipPath>
    <clipPath
       clipPathUnits="userSpaceOnUse"
       id="clipPath434">
      <path
         d="m 174.3307,0 v 0 l 0.099,8.63e-4 0.0989,0.002591 0.0988,0.004316 0.0988,0.00604 0.0986,0.007763 0.0985,0.009484 0.0983,0.011201 0.0981,0.012915 0.0979,0.014625 0.0976,0.016331 0.0973,0.018032 0.0969,0.019727 0.0966,0.021416 0.0962,0.023098 0.0958,0.024774 0.0954,0.026443 0.0948,0.028102 0.0944,0.029754 0.0938,0.031396 0.0933,0.033029 0.0927,0.034652 0.0921,0.036264 0.0914,0.037865 0.0907,0.039455 0.0901,0.041032 0.0893,0.042598 0.0885,0.04415 0.0878,0.045688 0.0869,0.047213 0.0862,0.048724 0.0852,0.050219 0.0844,0.0517 0.0834,0.053164 0.0825,0.054612 0.0816,0.056044 0.0805,0.057458 0.0796,0.058856 0.0785,0.060235 0.0774,0.061595 0.0764,0.062938 0.0752,0.064261 0.0741,0.065564 0.073,0.066847 0.0717,0.06811 0.0706,0.069353 0.0694,0.070574 0.0681,0.071773 0.0668,0.072951 0.0656,0.074107 0.0642,0.075239 0.063,0.07635 0.0616,0.077436 0.0602,0.0785 0.0589,0.079538 0.0574,0.080554 0.0561,0.081545 0.0546,0.08251 0.0531,0.083451 0.0517,0.084365 0.0503,0.085256 0.0487,0.086118 0.0472,0.086956 0.0457,0.087767 0.0441,0.088551 0.0426,0.089307 0.0411,0.090038 0.0394,0.09074 0.0379,0.091414 0.0362,0.092062 0.0347,0.092681 0.033,0.093271 0.0314,0.093833 0.0298,0.094367 0.0281,0.094872 0.0264,0.095348 0.0248,0.095795 0.0231,0.096212 0.0214,0.096601 0.0197,0.096961 0.0181,0.097289 0.0163,0.09759 0.0146,0.097859 0.0129,0.098101 0.0112,0.09831 0.01,0.098491 0.008,0.098642 0.006,0.098762 0.004,0.098852 0.003,0.098913 9e-4,0.098942 v 70.866139 0 l -9e-4,0.09895 -0.003,0.09891 -0.004,0.09885 -0.006,0.09876 -0.008,0.09864 -0.01,0.0985 -0.0112,0.09831 -0.0129,0.0981 -0.0146,0.09786 -0.0163,0.09759 -0.0181,0.09728 -0.0197,0.09697 -0.0214,0.0966 -0.0231,0.09621 -0.0248,0.09579 -0.0264,0.09535 -0.0281,0.09487 -0.0298,0.09437 -0.0314,0.09383 -0.033,0.09327 -0.0347,0.09269 -0.0362,0.09206 -0.0379,0.09141 -0.0394,0.09074 -0.0411,0.09004 -0.0426,0.08931 -0.0441,0.08855 -0.0457,0.08776 -0.0472,0.08696 -0.0487,0.08612 -0.0503,0.08525 -0.0517,0.08437 -0.0531,0.08345 -0.0546,0.08251 -0.0561,0.08154 -0.0574,0.08056 -0.0589,0.07954 -0.0602,0.0785 -0.0616,0.07743 -0.063,0.07635 -0.0642,0.07524 -0.0656,0.07411 -0.0668,0.07295 -0.0681,0.07177 -0.0694,0.07058 -0.0706,0.06935 -0.0717,0.06811 -0.073,0.06685 -0.0741,0.06556 -0.0752,0.06426 -0.0764,0.06294 -0.0774,0.0616 -0.0785,0.06023 -0.0796,0.05886 -0.0805,0.05745 -0.0816,0.05605 -0.0825,0.05461 -0.0834,0.05316 -0.0844,0.0517 -0.0852,0.05022 -0.0862,0.04873 -0.0869,0.04721 -0.0878,0.04569 -0.0885,0.04415 -0.0893,0.0426 -0.0901,0.04103 -0.0907,0.03945 -0.0914,0.03787 -0.0921,0.03626 -0.0927,0.03465 -0.0933,0.03303 -0.0938,0.0314 -0.0944,0.02975 -0.0948,0.02811 -0.0954,0.02644 -0.0958,0.02477 -0.0962,0.0231 -0.0966,0.02142 -0.0969,0.01972 -0.0973,0.01804 -0.0976,0.01633 -0.0979,0.01462 -0.0981,0.01292 -0.0983,0.0112 -0.0985,0.0095 -0.0986,0.0078 -0.0988,0.006 -0.0988,0.0043 -0.0989,0.0026 -0.099,8.6e-4 H 5.669291 v 0 L 5.570349,82.20387 5.471436,82.20127 5.372584,82.19697 5.273822,82.19097 5.17518,82.18315 5.076689,82.17367 4.978379,82.16247 4.880278,82.14955 4.782419,82.13493 4.684829,82.1186 4.58754,82.10056 4.490579,82.08084 4.393978,82.05942 4.297766,82.03632 4.201971,82.01155 4.106623,81.98511 4.011751,81.957 3.917384,81.92725 3.823551,81.89585 3.73028,81.86282 3.637599,81.82817 3.545537,81.79191 3.454123,81.75404 3.363383,81.71459 3.273345,81.67356 3.184038,81.63096 3.095487,81.58681 3.00772,81.54112 2.920764,81.49391 2.834646,81.44518 2.74939,81.39496 2.665025,81.34326 2.581574,81.2901 2.499064,81.23549 2.417519,81.17944 2.336965,81.12199 2.257427,81.06313 2.178927,81.0029 2.101491,80.9413 2.025141,80.87836 1.949902,80.8141 1.875795,80.74854 1.802844,80.68169 1.731071,80.61358 1.660497,80.54423 1.591144,80.47365 1.523034,80.40188 1.456187,80.32893 1.390623,80.25482 1.326362,80.17958 1.263424,80.10323 1.201829,80.0258 1.141594,79.9473 1.082738,79.86776 1.02528,79.7872 0.969236,79.70566 0.914624,79.62315 0.86146,79.5397 0.80976,79.45533 0.759541,79.37008 0.710817,79.28396 0.663604,79.197 0.617916,79.10924 0.573766,79.02069 0.531168,78.93138 0.490136,78.84134 0.450681,78.7506 0.412816,78.65919 0.376552,78.56713 0.3419,78.47444 0.308871,78.38117 0.277475,78.28734 0.247721,78.19297 0.219619,78.0981 0.193176,78.00275 0.168402,77.90696 0.145304,77.81075 0.123888,77.71415 0.104161,77.61718 0.086129,77.5199 0.069798,77.42231 0.055173,77.32445 0.042258,77.22635 0.031057,77.12804 0.021573,77.02954 0.01381,76.9309 0.00777,76.83214 0.003454,76.73329 8.63e-4,76.63438 0,76.53543 v -70.866139 0 L 8.63e-4,5.570349 0.003454,5.471436 0.00777,5.372584 0.01381,5.273822 0.021573,5.17518 0.031057,5.076689 0.042258,4.978379 0.055173,4.880278 0.069798,4.782419 0.086129,4.684829 0.104161,4.58754 0.123888,4.490579 0.145304,4.393978 0.168402,4.297766 0.193176,4.201971 0.219619,4.106623 0.247721,4.011751 0.277475,3.917384 0.308871,3.823551 0.3419,3.73028 0.376552,3.637599 0.412816,3.545537 0.450681,3.454123 0.490136,3.363383 0.531168,3.273345 0.573766,3.184038 0.617916,3.095487 0.663604,3.00772 0.710817,2.920764 0.759541,2.834646 0.80976,2.74939 0.86146,2.665025 0.914624,2.581574 0.969236,2.499064 1.02528,2.417519 1.082738,2.336965 1.141594,2.257427 1.201829,2.178927 1.263424,2.101491 1.326362,2.025141 1.390623,1.949902 1.456187,1.875795 1.523034,1.802844 1.591144,1.731071 1.660497,1.660497 1.731071,1.591144 1.802844,1.523034 1.875795,1.456187 1.949902,1.390623 2.025141,1.326362 2.101491,1.263424 2.178927,1.201829 2.257427,1.141594 2.336965,1.082738 2.417519,1.02528 2.499064,0.969236 2.581574,0.914624 2.665025,0.86146 2.74939,0.80976 2.834646,0.759541 2.920764,0.710817 3.00772,0.663604 3.095487,0.617916 3.184038,0.573766 3.273345,0.531168 3.363383,0.490136 3.454123,0.450681 3.545537,0.412816 3.637599,0.376552 3.73028,0.3419 3.823551,0.308871 3.917384,0.277475 4.011751,0.247721 4.106623,0.219619 4.201971,0.193176 4.297766,0.168402 4.393978,0.145304 4.490579,0.123888 4.58754,0.104161 4.684829,0.086129 4.782419,0.069798 4.880278,0.055173 4.978379,0.042258 5.076689,0.031057 5.17518,0.021573 5.273822,0.01381 5.372584,0.00777 5.471436,0.003454 5.570349,8.63e-4 5.669291,0 Z"
         clip-rule="evenodd"
         id="path432" />
    </clipPath>
    <clipPath
       clipPathUnits="userSpaceOnUse"
       id="clipPath442">
      <path
         d="M 0,0 H 158.7402 V 76.53543 H 0 Z"
         clip-rule="evenodd"
         id="path440" />
    </clipPath>
    <clipPath
       clipPathUnits="userSpaceOnUse"
       id="clipPath640">
      <path
         d="m 174.3307,0 v 0 l 0.099,8.63e-4 0.0989,0.002591 0.0988,0.004316 0.0988,0.00604 0.0986,0.007763 0.0985,0.009484 0.0983,0.011201 0.0981,0.012915 0.0979,0.014625 0.0976,0.016331 0.0973,0.018032 0.0969,0.019727 0.0966,0.021416 0.0962,0.023098 0.0958,0.024774 0.0954,0.026443 0.0948,0.028102 0.0944,0.029754 0.0938,0.031396 0.0933,0.033029 0.0927,0.034652 0.0921,0.036264 0.0914,0.037865 0.0907,0.039455 0.0901,0.041032 0.0893,0.042598 0.0885,0.04415 0.0878,0.045688 0.0869,0.047213 0.0862,0.048724 0.0852,0.050219 0.0844,0.0517 0.0834,0.053164 0.0825,0.054612 0.0816,0.056044 0.0805,0.057458 0.0796,0.058856 0.0785,0.060235 0.0774,0.061595 0.0764,0.062938 0.0752,0.064261 0.0741,0.065564 0.073,0.066847 0.0717,0.06811 0.0706,0.069353 0.0694,0.070574 0.0681,0.071773 0.0668,0.072951 0.0656,0.074107 0.0642,0.075239 0.063,0.07635 0.0616,0.077436 0.0602,0.0785 0.0589,0.079538 0.0574,0.080554 0.0561,0.081545 0.0546,0.08251 0.0531,0.083451 0.0517,0.084365 0.0503,0.085256 0.0487,0.086118 0.0472,0.086956 0.0457,0.087767 0.0441,0.088551 0.0426,0.089307 0.0411,0.090038 0.0394,0.09074 0.0379,0.091414 0.0362,0.092062 0.0347,0.092681 0.033,0.093271 0.0314,0.093833 0.0298,0.094367 0.0281,0.094872 0.0264,0.095348 0.0248,0.095795 0.0231,0.096212 0.0214,0.096601 0.0197,0.096961 0.0181,0.097289 0.0163,0.09759 0.0146,0.097859 0.0129,0.098101 0.0112,0.09831 0.01,0.098491 0.008,0.098642 0.006,0.098762 0.004,0.098852 0.003,0.098913 9e-4,0.098942 v 70.866139 0 l -9e-4,0.09895 -0.003,0.09891 -0.004,0.09885 -0.006,0.09876 -0.008,0.09864 -0.01,0.0985 -0.0112,0.09831 -0.0129,0.0981 -0.0146,0.09786 -0.0163,0.09759 -0.0181,0.09728 -0.0197,0.09697 -0.0214,0.0966 -0.0231,0.09621 -0.0248,0.09579 -0.0264,0.09535 -0.0281,0.09487 -0.0298,0.09437 -0.0314,0.09383 -0.033,0.09327 -0.0347,0.09269 -0.0362,0.09206 -0.0379,0.09141 -0.0394,0.09074 -0.0411,0.09004 -0.0426,0.08931 -0.0441,0.08855 -0.0457,0.08776 -0.0472,0.08696 -0.0487,0.08612 -0.0503,0.08525 -0.0517,0.08437 -0.0531,0.08345 -0.0546,0.08251 -0.0561,0.08154 -0.0574,0.08056 -0.0589,0.07954 -0.0602,0.0785 -0.0616,0.07743 -0.063,0.07635 -0.0642,0.07524 -0.0656,0.07411 -0.0668,0.07295 -0.0681,0.07177 -0.0694,0.07058 -0.0706,0.06935 -0.0717,0.06811 -0.073,0.06685 -0.0741,0.06556 -0.0752,0.06426 -0.0764,0.06294 -0.0774,0.0616 -0.0785,0.06023 -0.0796,0.05886 -0.0805,0.05745 -0.0816,0.05605 -0.0825,0.05461 -0.0834,0.05316 -0.0844,0.0517 -0.0852,0.05022 -0.0862,0.04873 -0.0869,0.04721 -0.0878,0.04569 -0.0885,0.04415 -0.0893,0.0426 -0.0901,0.04103 -0.0907,0.03945 -0.0914,0.03787 -0.0921,0.03626 -0.0927,0.03465 -0.0933,0.03303 -0.0938,0.0314 -0.0944,0.02975 -0.0948,0.02811 -0.0954,0.02644 -0.0958,0.02477 -0.0962,0.0231 -0.0966,0.02142 -0.0969,0.01972 -0.0973,0.01804 -0.0976,0.01633 -0.0979,0.01462 -0.0981,0.01292 -0.0983,0.0112 -0.0985,0.0095 -0.0986,0.0078 -0.0988,0.006 -0.0988,0.0043 -0.0989,0.0026 -0.099,8.6e-4 H 5.669291 v 0 L 5.570349,82.20387 5.471436,82.20127 5.372584,82.19697 5.273822,82.19097 5.17518,82.18315 5.076689,82.17367 4.978379,82.16247 4.880278,82.14955 4.782419,82.13493 4.684829,82.1186 4.58754,82.10056 4.490579,82.08084 4.393978,82.05942 4.297766,82.03632 4.201971,82.01155 4.106623,81.98511 4.011751,81.957 3.917384,81.92725 3.823551,81.89585 3.73028,81.86282 3.637599,81.82817 3.545537,81.79191 3.454123,81.75404 3.363383,81.71459 3.273345,81.67356 3.184038,81.63096 3.095487,81.58681 3.00772,81.54112 2.920764,81.49391 2.834646,81.44518 2.74939,81.39496 2.665025,81.34326 2.581574,81.2901 2.499064,81.23549 2.417519,81.17944 2.336965,81.12199 2.257427,81.06313 2.178927,81.0029 2.101491,80.9413 2.025141,80.87836 1.949902,80.8141 1.875795,80.74854 1.802844,80.68169 1.731071,80.61358 1.660497,80.54423 1.591144,80.47365 1.523034,80.40188 1.456187,80.32893 1.390623,80.25482 1.326362,80.17958 1.263424,80.10323 1.201829,80.0258 1.141594,79.9473 1.082738,79.86776 1.02528,79.7872 0.969236,79.70566 0.914624,79.62315 0.86146,79.5397 0.80976,79.45533 0.759541,79.37008 0.710817,79.28396 0.663604,79.197 0.617916,79.10924 0.573766,79.02069 0.531168,78.93138 0.490136,78.84134 0.450681,78.7506 0.412816,78.65919 0.376552,78.56713 0.3419,78.47444 0.308871,78.38117 0.277475,78.28734 0.247721,78.19297 0.219619,78.0981 0.193176,78.00275 0.168402,77.90696 0.145304,77.81075 0.123888,77.71415 0.104161,77.61718 0.086129,77.5199 0.069798,77.42231 0.055173,77.32445 0.042258,77.22635 0.031057,77.12804 0.021573,77.02954 0.01381,76.9309 0.00777,76.83214 0.003454,76.73329 8.63e-4,76.63438 0,76.53543 v -70.866139 0 L 8.63e-4,5.570349 0.003454,5.471436 0.00777,5.372584 0.01381,5.273822 0.021573,5.17518 0.031057,5.076689 0.042258,4.978379 0.055173,4.880278 0.069798,4.782419 0.086129,4.684829 0.104161,4.58754 0.123888,4.490579 0.145304,4.393978 0.168402,4.297766 0.193176,4.201971 0.219619,4.106623 0.247721,4.011751 0.277475,3.917384 0.308871,3.823551 0.3419,3.73028 0.376552,3.637599 0.412816,3.545537 0.450681,3.454123 0.490136,3.363383 0.531168,3.273345 0.573766,3.184038 0.617916,3.095487 0.663604,3.00772 0.710817,2.920764 0.759541,2.834646 0.80976,2.74939 0.86146,2.665025 0.914624,2.581574 0.969236,2.499064 1.02528,2.417519 1.082738,2.336965 1.141594,2.257427 1.201829,2.178927 1.263424,2.101491 1.326362,2.025141 1.390623,1.949902 1.456187,1.875795 1.523034,1.802844 1.591144,1.731071 1.660497,1.660497 1.731071,1.591144 1.802844,1.523034 1.875795,1.456187 1.949902,1.390623 2.025141,1.326362 2.101491,1.263424 2.178927,1.201829 2.257427,1.141594 2.336965,1.082738 2.417519,1.02528 2.499064,0.969236 2.581574,0.914624 2.665025,0.86146 2.74939,0.80976 2.834646,0.759541 2.920764,0.710817 3.00772,0.663604 3.095487,0.617916 3.184038,0.573766 3.273345,0.531168 3.363383,0.490136 3.454123,0.450681 3.545537,0.412816 3.637599,0.376552 3.73028,0.3419 3.823551,0.308871 3.917384,0.277475 4.011751,0.247721 4.106623,0.219619 4.201971,0.193176 4.297766,0.168402 4.393978,0.145304 4.490579,0.123888 4.58754,0.104161 4.684829,0.086129 4.782419,0.069798 4.880278,0.055173 4.978379,0.042258 5.076689,0.031057 5.17518,0.021573 5.273822,0.01381 5.372584,0.00777 5.471436,0.003454 5.570349,8.63e-4 5.669291,0 Z"
         clip-rule="evenodd"
         id="path638" />
    </clipPath>
    <clipPath
       clipPathUnits="userSpaceOnUse"
       id="clipPath648">
      <path
         d="M 0,0 H 158.7402 V 76.53543 H 0 Z"
         clip-rule="evenodd"
         id="path646" />
    </clipPath>
    <clipPath
       clipPathUnits="userSpaceOnUse"
       id="clipPath846">
      <path
         d="m 174.3307,0 v 0 l 0.099,8.63e-4 0.0989,0.002591 0.0988,0.004316 0.0988,0.00604 0.0986,0.007763 0.0985,0.009484 0.0983,0.011201 0.0981,0.012915 0.0979,0.014625 0.0976,0.016331 0.0973,0.018032 0.0969,0.019727 0.0966,0.021416 0.0962,0.023098 0.0958,0.024774 0.0954,0.026443 0.0948,0.028102 0.0944,0.029754 0.0938,0.031396 0.0933,0.033029 0.0927,0.034652 0.0921,0.036264 0.0914,0.037865 0.0907,0.039455 0.0901,0.041032 0.0893,0.042598 0.0885,0.04415 0.0878,0.045688 0.0869,0.047213 0.0862,0.048724 0.0852,0.050219 0.0844,0.0517 0.0834,0.053164 0.0825,0.054612 0.0816,0.056044 0.0805,0.057458 0.0796,0.058856 0.0785,0.060235 0.0774,0.061595 0.0764,0.062938 0.0752,0.064261 0.0741,0.065564 0.073,0.066847 0.0717,0.06811 0.0706,0.069353 0.0694,0.070574 0.0681,0.071773 0.0668,0.072951 0.0656,0.074107 0.0642,0.075239 0.063,0.07635 0.0616,0.077436 0.0602,0.0785 0.0589,0.079538 0.0574,0.080554 0.0561,0.081545 0.0546,0.08251 0.0531,0.083451 0.0517,0.084365 0.0503,0.085256 0.0487,0.086118 0.0472,0.086956 0.0457,0.087767 0.0441,0.088551 0.0426,0.089307 0.0411,0.090038 0.0394,0.09074 0.0379,0.091414 0.0362,0.092062 0.0347,0.092681 0.033,0.093271 0.0314,0.093833 0.0298,0.094367 0.0281,0.094872 0.0264,0.095348 0.0248,0.095795 0.0231,0.096212 0.0214,0.096601 0.0197,0.096961 0.0181,0.097289 0.0163,0.09759 0.0146,0.097859 0.0129,0.098101 0.0112,0.09831 0.01,0.098491 0.008,0.098642 0.006,0.098762 0.004,0.098852 0.003,0.098913 9e-4,0.098942 v 70.866139 0 l -9e-4,0.09895 -0.003,0.09891 -0.004,0.09885 -0.006,0.09876 -0.008,0.09864 -0.01,0.0985 -0.0112,0.09831 -0.0129,0.0981 -0.0146,0.09786 -0.0163,0.09759 -0.0181,0.09728 -0.0197,0.09697 -0.0214,0.0966 -0.0231,0.09621 -0.0248,0.09579 -0.0264,0.09535 -0.0281,0.09487 -0.0298,0.09437 -0.0314,0.09383 -0.033,0.09327 -0.0347,0.09269 -0.0362,0.09206 -0.0379,0.09141 -0.0394,0.09074 -0.0411,0.09004 -0.0426,0.08931 -0.0441,0.08855 -0.0457,0.08776 -0.0472,0.08696 -0.0487,0.08612 -0.0503,0.08525 -0.0517,0.08437 -0.0531,0.08345 -0.0546,0.08251 -0.0561,0.08154 -0.0574,0.08056 -0.0589,0.07954 -0.0602,0.0785 -0.0616,0.07743 -0.063,0.07635 -0.0642,0.07524 -0.0656,0.07411 -0.0668,0.07295 -0.0681,0.07177 -0.0694,0.07058 -0.0706,0.06935 -0.0717,0.06811 -0.073,0.06685 -0.0741,0.06556 -0.0752,0.06426 -0.0764,0.06294 -0.0774,0.0616 -0.0785,0.06023 -0.0796,0.05886 -0.0805,0.05745 -0.0816,0.05605 -0.0825,0.05461 -0.0834,0.05316 -0.0844,0.0517 -0.0852,0.05022 -0.0862,0.04873 -0.0869,0.04721 -0.0878,0.04569 -0.0885,0.04415 -0.0893,0.0426 -0.0901,0.04103 -0.0907,0.03945 -0.0914,0.03787 -0.0921,0.03626 -0.0927,0.03465 -0.0933,0.03303 -0.0938,0.0314 -0.0944,0.02975 -0.0948,0.02811 -0.0954,0.02644 -0.0958,0.02477 -0.0962,0.0231 -0.0966,0.02142 -0.0969,0.01972 -0.0973,0.01804 -0.0976,0.01633 -0.0979,0.01462 -0.0981,0.01292 -0.0983,0.0112 -0.0985,0.0095 -0.0986,0.0078 -0.0988,0.006 -0.0988,0.0043 -0.0989,0.0026 -0.099,8.6e-4 H 5.669291 v 0 L 5.570349,82.20387 5.471436,82.20127 5.372584,82.19697 5.273822,82.19097 5.17518,82.18315 5.076689,82.17367 4.978379,82.16247 4.880278,82.14955 4.782419,82.13493 4.684829,82.1186 4.58754,82.10056 4.490579,82.08084 4.393978,82.05942 4.297766,82.03632 4.201971,82.01155 4.106623,81.98511 4.011751,81.957 3.917384,81.92725 3.823551,81.89585 3.73028,81.86282 3.637599,81.82817 3.545537,81.79191 3.454123,81.75404 3.363383,81.71459 3.273345,81.67356 3.184038,81.63096 3.095487,81.58681 3.00772,81.54112 2.920764,81.49391 2.834646,81.44518 2.74939,81.39496 2.665025,81.34326 2.581574,81.2901 2.499064,81.23549 2.417519,81.17944 2.336965,81.12199 2.257427,81.06313 2.178927,81.0029 2.101491,80.9413 2.025141,80.87836 1.949902,80.8141 1.875795,80.74854 1.802844,80.68169 1.731071,80.61358 1.660497,80.54423 1.591144,80.47365 1.523034,80.40188 1.456187,80.32893 1.390623,80.25482 1.326362,80.17958 1.263424,80.10323 1.201829,80.0258 1.141594,79.9473 1.082738,79.86776 1.02528,79.7872 0.969236,79.70566 0.914624,79.62315 0.86146,79.5397 0.80976,79.45533 0.759541,79.37008 0.710817,79.28396 0.663604,79.197 0.617916,79.10924 0.573766,79.02069 0.531168,78.93138 0.490136,78.84134 0.450681,78.7506 0.412816,78.65919 0.376552,78.56713 0.3419,78.47444 0.308871,78.38117 0.277475,78.28734 0.247721,78.19297 0.219619,78.0981 0.193176,78.00275 0.168402,77.90696 0.145304,77.81075 0.123888,77.71415 0.104161,77.61718 0.086129,77.5199 0.069798,77.42231 0.055173,77.32445 0.042258,77.22635 0.031057,77.12804 0.021573,77.02954 0.01381,76.9309 0.00777,76.83214 0.003454,76.73329 8.63e-4,76.63438 0,76.53543 v -70.866139 0 L 8.63e-4,5.570349 0.003454,5.471436 0.00777,5.372584 0.01381,5.273822 0.021573,5.17518 0.031057,5.076689 0.042258,4.978379 0.055173,4.880278 0.069798,4.782419 0.086129,4.684829 0.104161,4.58754 0.123888,4.490579 0.145304,4.393978 0.168402,4.297766 0.193176,4.201971 0.219619,4.106623 0.247721,4.011751 0.277475,3.917384 0.308871,3.823551 0.3419,3.73028 0.376552,3.637599 0.412816,3.545537 0.450681,3.454123 0.490136,3.363383 0.531168,3.273345 0.573766,3.184038 0.617916,3.095487 0.663604,3.00772 0.710817,2.920764 0.759541,2.834646 0.80976,2.74939 0.86146,2.665025 0.914624,2.581574 0.969236,2.499064 1.02528,2.417519 1.082738,2.336965 1.141594,2.257427 1.201829,2.178927 1.263424,2.101491 1.326362,2.025141 1.390623,1.949902 1.456187,1.875795 1.523034,1.802844 1.591144,1.731071 1.660497,1.660497 1.731071,1.591144 1.802844,1.523034 1.875795,1.456187 1.949902,1.390623 2.025141,1.326362 2.101491,1.263424 2.178927,1.201829 2.257427,1.141594 2.336965,1.082738 2.417519,1.02528 2.499064,0.969236 2.581574,0.914624 2.665025,0.86146 2.74939,0.80976 2.834646,0.759541 2.920764,0.710817 3.00772,0.663604 3.095487,0.617916 3.184038,0.573766 3.273345,0.531168 3.363383,0.490136 3.454123,0.450681 3.545537,0.412816 3.637599,0.376552 3.73028,0.3419 3.823551,0.308871 3.917384,0.277475 4.011751,0.247721 4.106623,0.219619 4.201971,0.193176 4.297766,0.168402 4.393978,0.145304 4.490579,0.123888 4.58754,0.104161 4.684829,0.086129 4.782419,0.069798 4.880278,0.055173 4.978379,0.042258 5.076689,0.031057 5.17518,0.021573 5.273822,0.01381 5.372584,0.00777 5.471436,0.003454 5.570349,8.63e-4 5.669291,0 Z"
         clip-rule="evenodd"
         id="path844" />
    </clipPath>
    <clipPath
       clipPathUnits="userSpaceOnUse"
       id="clipPath854">
      <path
         d="M 0,0 H 158.7402 V 76.53543 H 0 Z"
         clip-rule="evenodd"
         id="path852" />
    </clipPath>
  </defs>
  <sodipodi:namedview
     id="namedview4"
     pagecolor="#ffffff"
     bordercolor="#666666"
     borderopacity="1.0"
     inkscape:showpageshadow="2"
     inkscape:pageopacity="0.0"
     inkscape:pagecheckerboard="0"
     inkscape:deskcolor="#d1d1d1"
     showgrid="false"
     inkscape:zoom="1.1893045"
     inkscape:cx="412.42592"
     inkscape:cy="174.05131"
     inkscape:window-width="1680"
     inkscape:window-height="1013"
     inkscape:window-x="0"
     inkscape:window-y="0"
     inkscape:window-maximized="1"
     inkscape:current-layer="g10">
    <inkscape:page
       x="0"
       y="0"
       id="page8"
       width="240.00107"
       height="109.6063" />
  </sodipodi:namedview>
  <g
     id="g10"
     inkscape:groupmode="layer"
     inkscape:label="Page 1"
     transform="matrix(1.3333333,0,0,-1.3333333,-26.456693,1073.3857)">
    <g
       id="g16"
       transform="translate(19.84252,722.8346)">
      <g
         id="g18"
         clip-path="url(#clipPath22)">
        <g
           id="g24"
           transform="translate(2.834646,2.834646)">
          <g
             id="g26"
             clip-path="url(#clipPath30)">
            <g
               id="g32"
               transform="matrix(1.992596,0,0,0.944822,-23.91115,26.78068)">
              <g
                 id="g34">
                <g
                   id="g36" />
                <g
                   id="g38">
                  <path
                     d="m 18,0 h 1.08 V 18 H 18 Z"
                     style="fill:#000000;fill-opacity:1;fill-rule:evenodd;stroke:none"
                     id="path40" />
                </g>
                <g
                   id="g42">
                  <path
                     d="m 19.62,0 h 0.54 v 18 h -0.54 z"
                     style="fill:#000000;fill-opacity:1;fill-rule:evenodd;stroke:none"
                     id="path44" />
                </g>
                <g
                   id="g46">
                  <path
                     d="m 21.24,0 h 0.54 v 18 h -0.54 z"
                     style="fill:#000000;fill-opacity:1;fill-rule:evenodd;stroke:none"
                     id="path48" />
                </g>
                <g
                   id="g50">
                  <path
                     d="m 23.94,0 h 1.08 v 18 h -1.08 z"
                     style="fill:#000000;fill-opacity:1;fill-rule:evenodd;stroke:none"
                     id="path52" />
                </g>
                <g
                   id="g54">
                  <path
                     d="m 25.56,0 h 1.08 v 18 h -1.08 z"
                     style="fill:#000000;fill-opacity:1;fill-rule:evenodd;stroke:none"
                     id="path56" />
                </g>
                <g
                   id="g58">
                  <path
                     d="M 27.72,0 H 28.8 V 18 H 27.72 Z"
                     style="fill:#000000;fill-opacity:1;fill-rule:evenodd;stroke:none"
                     id="path60" />
                </g>
                <g
                   id="g62">
                  <path
                     d="m 29.88,0 h 1.08 v 18 h -1.08 z"
                     style="fill:#000000;fill-opacity:1;fill-rule:evenodd;stroke:none"
                     id="path64" />
                </g>
                <g
                   id="g66">
                  <path
                     d="m 31.5,0 h 1.08 V 18 H 31.5 Z"
                     style="fill:#000000;fill-opacity:1;fill-rule:evenodd;stroke:none"
                     id="path68" />
                </g>
                <g
                   id="g70">
                  <path
                     d="m 33.66,0 h 1.08 v 18 h -1.08 z"
                     style="fill:#000000;fill-opacity:1;fill-rule:evenodd;stroke:none"
                     id="path72" />
                </g>
                <g
                   id="g74">
                  <path
                     d="M 35.82,0 H 36.9 V 18 H 35.82 Z"
                     style="fill:#000000;fill-opacity:1;fill-rule:evenodd;stroke:none"
                     id="path76" />
                </g>
                <g
                   id="g78">
                  <path
                     d="m 37.44,0 h 1.08 v 18 h -1.08 z"
                     style="fill:#000000;fill-opacity:1;fill-rule:evenodd;stroke:none"
                     id="path80" />
                </g>
                <g
                   id="g82">
                  <path
                     d="m 39.6,0 h 1.08 V 18 H 39.6 Z"
                     style="fill:#000000;fill-opacity:1;fill-rule:evenodd;stroke:none"
                     id="path84" />
                </g>
                <g
                   id="g86">
                  <path
                     d="m 41.76,0 h 1.08 v 18 h -1.08 z"
                     style="fill:#000000;fill-opacity:1;fill-rule:evenodd;stroke:none"
                     id="path88" />
                </g>
                <g
                   id="g90">
                  <path
                     d="m 43.38,0 h 1.08 v 18 h -1.08 z"
                     style="fill:#000000;fill-opacity:1;fill-rule:evenodd;stroke:none"
                     id="path92" />
                </g>
                <g
                   id="g94">
                  <path
                     d="m 45.54,0 h 1.08 v 18 h -1.08 z"
                     style="fill:#000000;fill-opacity:1;fill-rule:evenodd;stroke:none"
                     id="path96" />
                </g>
                <g
                   id="g98">
                  <path
                     d="m 47.7,0 h 1.08 V 18 H 47.7 Z"
                     style="fill:#000000;fill-opacity:1;fill-rule:evenodd;stroke:none"
                     id="path100" />
                </g>
                <g
                   id="g102">
                  <path
                     d="m 49.86,0 h 1.62 v 18 h -1.62 z"
                     style="fill:#000000;fill-opacity:1;fill-rule:evenodd;stroke:none"
                     id="path104" />
                </g>
                <g
                   id="g106">
                  <path
                     d="M 52.56,0 H 53.1 V 18 H 52.56 Z"
                     style="fill:#000000;fill-opacity:1;fill-rule:evenodd;stroke:none"
                     id="path108" />
                </g>
                <g
                   id="g110">
                  <path
                     d="m 53.64,0 h 0.54 v 18 h -0.54 z"
                     style="fill:#000000;fill-opacity:1;fill-rule:evenodd;stroke:none"
                     id="path112" />
                </g>
                <g
                   id="g114">
                  <path
                     d="m 54.72,0 h 1.62 v 18 h -1.62 z"
                     style="fill:#000000;fill-opacity:1;fill-rule:evenodd;stroke:none"
                     id="path116" />
                </g>
                <g
                   id="g118">
                  <path
                     d="m 56.88,0 h 2.16 v 18 h -2.16 z"
                     style="fill:#000000;fill-opacity:1;fill-rule:evenodd;stroke:none"
                     id="path120" />
                </g>
                <g
                   id="g122">
                  <path
                     d="m 59.58,0 h 0.54 v 18 h -0.54 z"
                     style="fill:#000000;fill-opacity:1;fill-rule:evenodd;stroke:none"
                     id="path124" />
                </g>
                <g
                   id="g126">
                  <path
                     d="m 61.2,0 h 1.08 V 18 H 61.2 Z"
                     style="fill:#000000;fill-opacity:1;fill-rule:evenodd;stroke:none"
                     id="path128" />
                </g>
                <g
                   id="g130">
                  <path
                     d="m 62.82,0 h 1.62 v 18 h -1.62 z"
                     style="fill:#000000;fill-opacity:1;fill-rule:evenodd;stroke:none"
                     id="path132" />
                </g>
                <g
                   id="g134">
                  <path
                     d="m 65.52,0 h 0.54 v 18 h -0.54 z"
                     style="fill:#000000;fill-opacity:1;fill-rule:evenodd;stroke:none"
                     id="path136" />
                </g>
                <g
                   id="g138">
                  <path
                     d="m 67.14,0 h 0.54 v 18 h -0.54 z"
                     style="fill:#000000;fill-opacity:1;fill-rule:evenodd;stroke:none"
                     id="path140" />
                </g>
                <g
                   id="g142">
                  <path
                     d="M 68.22,0 H 69.3 V 18 H 68.22 Z"
                     style="fill:#000000;fill-opacity:1;fill-rule:evenodd;stroke:none"
                     id="path144" />
                </g>
                <g
                   id="g146">
                  <path
                     d="m 71.46,0 h 1.62 v 18 h -1.62 z"
                     style="fill:#000000;fill-opacity:1;fill-rule:evenodd;stroke:none"
                     id="path148" />
                </g>
                <g
                   id="g150">
                  <path
                     d="m 73.62,0 h 2.16 v 18 h -2.16 z"
                     style="fill:#000000;fill-opacity:1;fill-rule:evenodd;stroke:none"
                     id="path152" />
                </g>
                <g
                   id="g154">
                  <path
                     d="m 76.32,0 h 0.54 v 18 h -0.54 z"
                     style="fill:#000000;fill-opacity:1;fill-rule:evenodd;stroke:none"
                     id="path156" />
                </g>
                <g
                   id="g158">
                  <path
                     d="m 77.4,0 h 1.08 V 18 H 77.4 Z"
                     style="fill:#000000;fill-opacity:1;fill-rule:evenodd;stroke:none"
                     id="path160" />
                </g>
                <g
                   id="g162">
                  <path
                     d="m 80.1,0 h 1.62 V 18 H 80.1 Z"
                     style="fill:#000000;fill-opacity:1;fill-rule:evenodd;stroke:none"
                     id="path164" />
                </g>
                <g
                   id="g166">
                  <path
                     d="M 82.26,0 H 82.8 V 18 H 82.26 Z"
                     style="fill:#000000;fill-opacity:1;fill-rule:evenodd;stroke:none"
                     id="path168" />
                </g>
                <g
                   id="g170">
                  <path
                     d="m 83.34,0 h 1.08 v 18 h -1.08 z"
                     style="fill:#000000;fill-opacity:1;fill-rule:evenodd;stroke:none"
                     id="path172" />
                </g>
              </g>
            </g>
            <g
               id="g174">
              <text
                 xml:space="preserve"
                 transform="matrix(1,0,0,-1,40.35208,65.19274)"
                 style="font-variant:normal;font-weight:normal;font-size:6px;font-family:Helvetica;-inkscape-font-specification:Helvetica;writing-mode:lr-tb;fill:#000000;fill-opacity:1;fill-rule:nonzero;stroke:none"
                 id="text178"><tspan
                   x="0 3.336 6.336 9.3360004 12.672 16.007999 17.676001 20.676001 24.011999 27.348 30.684 32.352001 36.354 39.689999 41.688 43.355999 45.023998 47.021999 48.689999 53.021999 56.358002 59.694 62.694 66.029999 68.028 71.363998 74.699997"
                   y="0"
                   sodipodi:role="line"
                   id="tspan176">Lycée Jean Bart - Dunkerque</tspan></text>
            </g>
            <g
               id="g180">
              <text
                 xml:space="preserve"
                 transform="matrix(1,0,0,-1,40.46608,56.68934)"
                 style="font-variant:normal;font-weight:normal;font-size:4px;font-family:Helvetica;-inkscape-font-specification:Helvetica;writing-mode:lr-tb;fill:#000000;fill-opacity:1;fill-rule:nonzero;stroke:none"
                 id="text184"><tspan
                   x="0 2.224 4.448 5.5599999 7.7839999 10.008 11.12 13.344 15.568 17.792 20.016001 21.128 22.459999 23.572001 26.459999 27.348 29.348 31.572001 33.796001 37.127998 39.352001 41.576 43.799999 46.023998 47.136002 49.580002 51.804001 53.136002 56.467999 57.580002 60.692001 61.804001 64.028 65.139999 66.251999 68.919998 71.363998 74.695999"
                   y="0"
                   sodipodi:role="line"
                   id="tspan182">14/03/2023 - Hispamundo Term G et STMG</tspan></text>
            </g>
            <g
               id="g186">
              <text
                 xml:space="preserve"
                 transform="matrix(1,0,0,-1,62.36008,14.17234)"
                 style="font-variant:normal;font-weight:normal;font-size:6px;font-family:Helvetica;-inkscape-font-specification:Helvetica;writing-mode:lr-tb;fill:#000000;fill-opacity:1;fill-rule:nonzero;stroke:none"
                 id="text190"><tspan
                   x="0 4.0019999 8.0039997 12.006 13.674 15.672 17.34 20.676001 24.011999 27.348 30.684"
                   y="0"
                   sodipodi:role="line"
                   id="tspan188">ESP - 21365</tspan></text>
            </g>
            <g
               id="g192">
              <path
                 d="M 5.668934,9.920635 H 158.7302 V 24.09297 H 5.668934 V 9.920635"
                 style="fill:none;stroke:#c8c8c8;stroke-width:0.05;stroke-linecap:butt;stroke-linejoin:miter;stroke-miterlimit:10;stroke-dasharray:none;stroke-opacity:1"
                 id="path194" />
            </g>
            <g
               id="g196"
               transform="rotate(-90,38.265305,26.927435)">
              <g
                 id="g198">
                <text
                   xml:space="preserve"
                   transform="scale(1,-1)"
                   style="font-variant:normal;font-weight:bold;font-size:4px;font-family:Helvetica;-inkscape-font-specification:Helvetica-Bold;writing-mode:lr-tb;fill:#000000;fill-opacity:1;fill-rule:nonzero;stroke:none"
                   id="text202"><tspan
                     x="0 2.224 4.448 6.6719999 8.8959999"
                     y="0"
                     sodipodi:role="line"
                     id="tspan200">21365</tspan></text>
              </g>
            </g>
            <g
               id="g204">
              <text
                 xml:space="preserve"
                 transform="matrix(1,0,0,-1,127.551,48.18594)"
                 style="font-variant:normal;font-weight:bold;font-size:4px;font-family:Helvetica;-inkscape-font-specification:Helvetica-Bold;writing-mode:lr-tb;fill:#000000;fill-opacity:1;fill-rule:nonzero;stroke:none"
                 id="text208"><tspan
                   x="0 2.224 4.448 6.6719999 8.8959999"
                   y="0"
                   sodipodi:role="line"
                   id="tspan206">21365</tspan></text>
            </g>
            <g
               id="g210"
               transform="rotate(-90,109.12697,-43.93423)">
              <g
                 id="g212">
                <text
                   xml:space="preserve"
                   transform="scale(1,-1)"
                   style="font-variant:normal;font-weight:normal;font-size:4px;font-family:Helvetica;-inkscape-font-specification:Helvetica;writing-mode:lr-tb;fill:#000000;fill-opacity:1;fill-rule:nonzero;stroke:none"
                   id="text216"><tspan
                     x="0 2.668 4.8920002 8.224 9.3360004 11.336 13.56 14.892 16.892 17.780001 20.004 22.228001 23.34 25.563999 26.676001 28.9"
                     y="0"
                     sodipodi:role="line"
                     id="tspan214">SLM version 1.04</tspan></text>
              </g>
            </g>
          </g>
        </g>
        <g
           id="g218">
          <path
             d="m 174.3307,0 v 0 l 0.099,8.63e-4 0.0989,0.002591 0.0988,0.004316 0.0988,0.00604 0.0986,0.007763 0.0985,0.009484 0.0983,0.011201 0.0981,0.012915 0.0979,0.014625 0.0976,0.016331 0.0973,0.018032 0.0969,0.019727 0.0966,0.021416 0.0962,0.023098 0.0958,0.024774 0.0954,0.026443 0.0948,0.028102 0.0944,0.029754 0.0938,0.031396 0.0933,0.033029 0.0927,0.034652 0.0921,0.036264 0.0914,0.037865 0.0907,0.039455 0.0901,0.041032 0.0893,0.042598 0.0885,0.04415 0.0878,0.045688 0.0869,0.047213 0.0862,0.048724 0.0852,0.050219 0.0844,0.0517 0.0834,0.053164 0.0825,0.054612 0.0816,0.056044 0.0805,0.057458 0.0796,0.058856 0.0785,0.060235 0.0774,0.061595 0.0764,0.062938 0.0752,0.064261 0.0741,0.065564 0.073,0.066847 0.0717,0.06811 0.0706,0.069353 0.0694,0.070574 0.0681,0.071773 0.0668,0.072951 0.0656,0.074107 0.0642,0.075239 0.063,0.07635 0.0616,0.077436 0.0602,0.0785 0.0589,0.079538 0.0574,0.080554 0.0561,0.081545 0.0546,0.08251 0.0531,0.083451 0.0517,0.084365 0.0503,0.085256 0.0487,0.086118 0.0472,0.086956 0.0457,0.087767 0.0441,0.088551 0.0426,0.089307 0.0411,0.090038 0.0394,0.09074 0.0379,0.091414 0.0362,0.092062 0.0347,0.092681 0.033,0.093271 0.0314,0.093833 0.0298,0.094367 0.0281,0.094872 0.0264,0.095348 0.0248,0.095795 0.0231,0.096212 0.0214,0.096601 0.0197,0.096961 0.0181,0.097289 0.0163,0.09759 0.0146,0.097859 0.0129,0.098101 0.0112,0.09831 0.01,0.098491 0.008,0.098642 0.006,0.098762 0.004,0.098852 0.003,0.098913 9e-4,0.098942 v 70.866139 0 l -9e-4,0.09895 -0.003,0.09891 -0.004,0.09885 -0.006,0.09876 -0.008,0.09864 -0.01,0.0985 -0.0112,0.09831 -0.0129,0.0981 -0.0146,0.09786 -0.0163,0.09759 -0.0181,0.09728 -0.0197,0.09697 -0.0214,0.0966 -0.0231,0.09621 -0.0248,0.09579 -0.0264,0.09535 -0.0281,0.09487 -0.0298,0.09437 -0.0314,0.09383 -0.033,0.09327 -0.0347,0.09269 -0.0362,0.09206 -0.0379,0.09141 -0.0394,0.09074 -0.0411,0.09004 -0.0426,0.08931 -0.0441,0.08855 -0.0457,0.08776 -0.0472,0.08696 -0.0487,0.08612 -0.0503,0.08525 -0.0517,0.08437 -0.0531,0.08345 -0.0546,0.08251 -0.0561,0.08154 -0.0574,0.08056 -0.0589,0.07954 -0.0602,0.0785 -0.0616,0.07743 -0.063,0.07635 -0.0642,0.07524 -0.0656,0.07411 -0.0668,0.07295 -0.0681,0.07177 -0.0694,0.07058 -0.0706,0.06935 -0.0717,0.06811 -0.073,0.06685 -0.0741,0.06556 -0.0752,0.06426 -0.0764,0.06294 -0.0774,0.0616 -0.0785,0.06023 -0.0796,0.05886 -0.0805,0.05745 -0.0816,0.05605 -0.0825,0.05461 -0.0834,0.05316 -0.0844,0.0517 -0.0852,0.05022 -0.0862,0.04873 -0.0869,0.04721 -0.0878,0.04569 -0.0885,0.04415 -0.0893,0.0426 -0.0901,0.04103 -0.0907,0.03945 -0.0914,0.03787 -0.0921,0.03626 -0.0927,0.03465 -0.0933,0.03303 -0.0938,0.0314 -0.0944,0.02975 -0.0948,0.02811 -0.0954,0.02644 -0.0958,0.02477 -0.0962,0.0231 -0.0966,0.02142 -0.0969,0.01972 -0.0973,0.01804 -0.0976,0.01633 -0.0979,0.01462 -0.0981,0.01292 -0.0983,0.0112 -0.0985,0.0095 -0.0986,0.0078 -0.0988,0.006 -0.0988,0.0043 -0.0989,0.0026 -0.099,8.6e-4 H 5.669291 v 0 L 5.570349,82.20387 5.471436,82.20127 5.372584,82.19697 5.273822,82.19097 5.17518,82.18315 5.076689,82.17367 4.978379,82.16247 4.880278,82.14955 4.782419,82.13493 4.684829,82.1186 4.58754,82.10056 4.490579,82.08084 4.393978,82.05942 4.297766,82.03632 4.201971,82.01155 4.106623,81.98511 4.011751,81.957 3.917384,81.92725 3.823551,81.89585 3.73028,81.86282 3.637599,81.82817 3.545537,81.79191 3.454123,81.75404 3.363383,81.71459 3.273345,81.67356 3.184038,81.63096 3.095487,81.58681 3.00772,81.54112 2.920764,81.49391 2.834646,81.44518 2.74939,81.39496 2.665025,81.34326 2.581574,81.2901 2.499064,81.23549 2.417519,81.17944 2.336965,81.12199 2.257427,81.06313 2.178927,81.0029 2.101491,80.9413 2.025141,80.87836 1.949902,80.8141 1.875795,80.74854 1.802844,80.68169 1.731071,80.61358 1.660497,80.54423 1.591144,80.47365 1.523034,80.40188 1.456187,80.32893 1.390623,80.25482 1.326362,80.17958 1.263424,80.10323 1.201829,80.0258 1.141594,79.9473 1.082738,79.86776 1.02528,79.7872 0.969236,79.70566 0.914624,79.62315 0.86146,79.5397 0.80976,79.45533 0.759541,79.37008 0.710817,79.28396 0.663604,79.197 0.617916,79.10924 0.573766,79.02069 0.531168,78.93138 0.490136,78.84134 0.450681,78.7506 0.412816,78.65919 0.376552,78.56713 0.3419,78.47444 0.308871,78.38117 0.277475,78.28734 0.247721,78.19297 0.219619,78.0981 0.193176,78.00275 0.168402,77.90696 0.145304,77.81075 0.123888,77.71415 0.104161,77.61718 0.086129,77.5199 0.069798,77.42231 0.055173,77.32445 0.042258,77.22635 0.031057,77.12804 0.021573,77.02954 0.01381,76.9309 0.00777,76.83214 0.003454,76.73329 8.63e-4,76.63438 0,76.53543 v -70.866139 0 L 8.63e-4,5.570349 0.003454,5.471436 0.00777,5.372584 0.01381,5.273822 0.021573,5.17518 0.031057,5.076689 0.042258,4.978379 0.055173,4.880278 0.069798,4.782419 0.086129,4.684829 0.104161,4.58754 0.123888,4.490579 0.145304,4.393978 0.168402,4.297766 0.193176,4.201971 0.219619,4.106623 0.247721,4.011751 0.277475,3.917384 0.308871,3.823551 0.3419,3.73028 0.376552,3.637599 0.412816,3.545537 0.450681,3.454123 0.490136,3.363383 0.531168,3.273345 0.573766,3.184038 0.617916,3.095487 0.663604,3.00772 0.710817,2.920764 0.759541,2.834646 0.80976,2.74939 0.86146,2.665025 0.914624,2.581574 0.969236,2.499064 1.02528,2.417519 1.082738,2.336965 1.141594,2.257427 1.201829,2.178927 1.263424,2.101491 1.326362,2.025141 1.390623,1.949902 1.456187,1.875795 1.523034,1.802844 1.591144,1.731071 1.660497,1.660497 1.731071,1.591144 1.802844,1.523034 1.875795,1.456187 1.949902,1.390623 2.025141,1.326362 2.101491,1.263424 2.178927,1.201829 2.257427,1.141594 2.336965,1.082738 2.417519,1.02528 2.499064,0.969236 2.581574,0.914624 2.665025,0.86146 2.74939,0.80976 2.834646,0.759541 2.920764,0.710817 3.00772,0.663604 3.095487,0.617916 3.184038,0.573766 3.273345,0.531168 3.363383,0.490136 3.454123,0.450681 3.545537,0.412816 3.637599,0.376552 3.73028,0.3419 3.823551,0.308871 3.917384,0.277475 4.011751,0.247721 4.106623,0.219619 4.201971,0.193176 4.297766,0.168402 4.393978,0.145304 4.490579,0.123888 4.58754,0.104161 4.684829,0.086129 4.782419,0.069798 4.880278,0.055173 4.978379,0.042258 5.076689,0.031057 5.17518,0.021573 5.273822,0.01381 5.372584,0.00777 5.471436,0.003454 5.570349,8.63e-4 5.669291,0 Z"
             style="fill:none;stroke:#000000;stroke-width:1;stroke-linecap:butt;stroke-linejoin:miter;stroke-miterlimit:10;stroke-dasharray:none;stroke-opacity:1"
             id="path220" />
        </g>
      </g>
    </g>
  </g>
</svg>
